EESchema Schematic File Version 4
EELAYER 30 0
EELAYER END
$Descr A4 11693 8268
encoding utf-8
Sheet 1 1
Title ""
Date ""
Rev ""
Comp ""
Comment1 ""
Comment2 ""
Comment3 ""
Comment4 ""
$EndDescr
$Comp
L fab:FT230XS U1
U 1 1 6026F555
P 4600 3650
F 0 "U1" H 4950 4350 50  0000 C CNN
F 1 "FT230XS" H 4950 4250 50  0000 C CNN
F 2 "Package_SO:SSOP-16_3.9x4.9mm_P0.635mm" H 4600 3650 50  0001 C CIN
F 3 "http://www.ftdichip.com/Products/ICs/FT230X.html" H 4600 3650 50  0001 C CNN
	1    4600 3650
	1    0    0    -1  
$EndComp
$Comp
L fab:USB_A_PLUG J1
U 1 1 602709A9
P 1300 3550
F 0 "J1" V 707 3292 60  0000 C CNN
F 1 "USB_A_PLUG" V 813 3292 60  0000 C CNN
F 2 "fab:fab-USB_A_male_plug" V 919 3292 60  0000 C CNN
F 3 "" H 1300 3550 60  0000 C CNN
	1    1300 3550
	0    -1   1    0   
$EndComp
$Comp
L fab:C C1
U 1 1 602741C1
P 2850 3300
F 0 "C1" H 2965 3346 50  0000 L CNN
F 1 "10p" H 2965 3255 50  0000 L CNN
F 2 "fab:C_1206" H 2888 3150 50  0001 C CNN
F 3 "" H 2850 3300 50  0001 C CNN
	1    2850 3300
	1    0    0    -1  
$EndComp
$Comp
L fab:C C2
U 1 1 60275EC8
P 2850 3850
F 0 "C2" H 2965 3896 50  0000 L CNN
F 1 "10p" H 2965 3805 50  0000 L CNN
F 2 "fab:C_1206" H 2888 3700 50  0001 C CNN
F 3 "" H 2850 3850 50  0001 C CNN
	1    2850 3850
	1    0    0    -1  
$EndComp
$Comp
L fab:C C3
U 1 1 60276E1F
P 4250 2650
F 0 "C3" V 3998 2650 50  0000 C CNN
F 1 "1u" V 4089 2650 50  0000 C CNN
F 2 "fab:C_1206" H 4288 2500 50  0001 C CNN
F 3 "" H 4250 2650 50  0001 C CNN
	1    4250 2650
	0    1    1    0   
$EndComp
$Comp
L fab:R R1
U 1 1 60277A69
P 3400 3500
F 0 "R1" V 3193 3500 50  0000 C CNN
F 1 "49" V 3284 3500 50  0000 C CNN
F 2 "fab:R_1206" V 3330 3500 50  0001 C CNN
F 3 "~" H 3400 3500 50  0001 C CNN
	1    3400 3500
	0    1    1    0   
$EndComp
$Comp
L fab:R R2
U 1 1 60278836
P 3400 3650
F 0 "R2" V 3500 3650 50  0000 C CNN
F 1 "49" V 3600 3650 50  0000 C CNN
F 2 "fab:R_1206" V 3330 3650 50  0001 C CNN
F 3 "~" H 3400 3650 50  0001 C CNN
	1    3400 3650
	0    1    1    0   
$EndComp
$Comp
L fab:R R3
U 1 1 6027D546
P 6250 3550
F 0 "R3" H 6180 3504 50  0000 R CNN
F 1 "4,9k" H 6180 3595 50  0000 R CNN
F 2 "fab:R_1206" V 6180 3550 50  0001 C CNN
F 3 "~" H 6250 3550 50  0001 C CNN
	1    6250 3550
	-1   0    0    1   
$EndComp
$Comp
L Connector_Generic:Conn_02x02_Counter_Clockwise J2
U 1 1 6027F54C
P 5900 3300
F 0 "J2" H 5950 2975 50  0000 C CNN
F 1 "Conn_02x02_Counter_Clockwise" H 5950 3066 50  0000 C CNN
F 2 "Connector_PinHeader_2.54mm:PinHeader_2x02_P2.54mm_Vertical_SMD" H 5900 3300 50  0001 C CNN
F 3 "~" H 5900 3300 50  0001 C CNN
	1    5900 3300
	-1   0    0    1   
$EndComp
$Comp
L fab:Conn_01x03_Male J3
U 1 1 6028139B
P 7150 3100
F 0 "J3" H 7122 3032 50  0000 R CNN
F 1 "Conn_01x03_Male" H 7122 3123 50  0000 R CNN
F 2 "fab:Header_SMD_01x03_P2.54mm_Horizontal_Male" H 7150 3100 50  0001 C CNN
F 3 "~" H 7150 3100 50  0001 C CNN
	1    7150 3100
	-1   0    0    1   
$EndComp
$Comp
L fab:Conn_01x06_Male J4
U 1 1 602840F7
P 7150 3750
F 0 "J4" H 7122 3632 50  0000 R CNN
F 1 "Conn_01x06_Male" H 7122 3723 50  0000 R CNN
F 2 "fab:Header_SMD_01x06_P2.54mm_Horizontal_Male" H 7150 3750 50  0001 C CNN
F 3 "~" H 7150 3750 50  0001 C CNN
	1    7150 3750
	-1   0    0    1   
$EndComp
$Comp
L power:VCC #PWR01
U 1 1 6028A144
P 2350 3050
F 0 "#PWR01" H 2350 2900 50  0001 C CNN
F 1 "VCC" H 2365 3223 50  0000 C CNN
F 2 "" H 2350 3050 50  0001 C CNN
F 3 "" H 2350 3050 50  0001 C CNN
	1    2350 3050
	1    0    0    -1  
$EndComp
$Comp
L power:VCC #PWR06
U 1 1 6028B454
P 4500 2450
F 0 "#PWR06" H 4500 2300 50  0001 C CNN
F 1 "VCC" H 4515 2623 50  0000 C CNN
F 2 "" H 4500 2450 50  0001 C CNN
F 3 "" H 4500 2450 50  0001 C CNN
	1    4500 2450
	1    0    0    -1  
$EndComp
$Comp
L power:VCC #PWR09
U 1 1 6028BE43
P 6700 2450
F 0 "#PWR09" H 6700 2300 50  0001 C CNN
F 1 "VCC" H 6715 2623 50  0000 C CNN
F 2 "" H 6700 2450 50  0001 C CNN
F 3 "" H 6700 2450 50  0001 C CNN
	1    6700 2450
	1    0    0    -1  
$EndComp
$Comp
L power:GND #PWR02
U 1 1 6028C833
P 2350 4100
F 0 "#PWR02" H 2350 3850 50  0001 C CNN
F 1 "GND" H 2355 3927 50  0000 C CNN
F 2 "" H 2350 4100 50  0001 C CNN
F 3 "" H 2350 4100 50  0001 C CNN
	1    2350 4100
	1    0    0    -1  
$EndComp
$Comp
L power:GND #PWR08
U 1 1 6028DA81
P 4700 4450
F 0 "#PWR08" H 4700 4200 50  0001 C CNN
F 1 "GND" H 4705 4277 50  0000 C CNN
F 2 "" H 4700 4450 50  0001 C CNN
F 3 "" H 4700 4450 50  0001 C CNN
	1    4700 4450
	1    0    0    -1  
$EndComp
$Comp
L power:GND #PWR07
U 1 1 6028E5D6
P 4500 4450
F 0 "#PWR07" H 4500 4200 50  0001 C CNN
F 1 "GND" H 4505 4277 50  0000 C CNN
F 2 "" H 4500 4450 50  0001 C CNN
F 3 "" H 4500 4450 50  0001 C CNN
	1    4500 4450
	1    0    0    -1  
$EndComp
$Comp
L power:GND #PWR010
U 1 1 6028E84C
P 6850 4150
F 0 "#PWR010" H 6850 3900 50  0001 C CNN
F 1 "GND" H 6855 3977 50  0000 C CNN
F 2 "" H 6850 4150 50  0001 C CNN
F 3 "" H 6850 4150 50  0001 C CNN
	1    6850 4150
	1    0    0    -1  
$EndComp
Wire Wire Line
	2000 3500 2850 3500
Wire Wire Line
	3250 3650 2850 3650
Wire Wire Line
	2850 3700 2850 3650
Connection ~ 2850 3650
Wire Wire Line
	2850 3650 2000 3650
$Comp
L power:GND #PWR04
U 1 1 6028F79F
P 2850 4100
F 0 "#PWR04" H 2850 3850 50  0001 C CNN
F 1 "GND" H 2855 3927 50  0000 C CNN
F 2 "" H 2850 4100 50  0001 C CNN
F 3 "" H 2850 4100 50  0001 C CNN
	1    2850 4100
	1    0    0    -1  
$EndComp
$Comp
L power:GND #PWR03
U 1 1 6028FF34
P 2850 3050
F 0 "#PWR03" H 2850 2800 50  0001 C CNN
F 1 "GND" H 2855 2877 50  0000 C CNN
F 2 "" H 2850 3050 50  0001 C CNN
F 3 "" H 2850 3050 50  0001 C CNN
	1    2850 3050
	-1   0    0    1   
$EndComp
Wire Wire Line
	2000 3800 2350 3800
Wire Wire Line
	2350 3800 2350 4100
Wire Wire Line
	2000 3350 2350 3350
Wire Wire Line
	2350 3350 2350 3050
Wire Wire Line
	2850 3050 2850 3150
Wire Wire Line
	2850 3450 2850 3500
Connection ~ 2850 3500
Wire Wire Line
	2850 3500 3250 3500
Wire Wire Line
	2850 4100 2850 4000
Wire Wire Line
	3550 3650 3900 3650
Wire Wire Line
	3900 3550 3600 3550
Wire Wire Line
	3600 3550 3600 3500
Wire Wire Line
	3600 3500 3550 3500
Wire Wire Line
	3900 3850 3750 3850
Wire Wire Line
	3750 3850 3750 3250
Wire Wire Line
	3750 3250 3900 3250
Wire Wire Line
	3750 3250 3750 2850
Wire Wire Line
	3750 2850 4700 2850
Wire Wire Line
	4700 2850 4700 2950
Connection ~ 3750 3250
Wire Wire Line
	4500 4450 4500 4350
Wire Wire Line
	4700 4450 4700 4350
Wire Wire Line
	4500 2450 4500 2650
Wire Wire Line
	4500 2650 4400 2650
Connection ~ 4500 2650
Wire Wire Line
	4500 2650 4500 2950
$Comp
L power:GND #PWR05
U 1 1 6029D07D
P 4000 2650
F 0 "#PWR05" H 4000 2400 50  0001 C CNN
F 1 "GND" V 4005 2522 50  0000 R CNN
F 2 "" H 4000 2650 50  0001 C CNN
F 3 "" H 4000 2650 50  0001 C CNN
	1    4000 2650
	0    1    1    0   
$EndComp
Wire Wire Line
	4100 2650 4000 2650
Wire Wire Line
	6950 3850 6550 3850
Wire Wire Line
	5300 3750 6250 3750
Wire Wire Line
	6250 3700 6250 3750
Connection ~ 6250 3750
Wire Wire Line
	6250 3750 6950 3750
Wire Wire Line
	6250 3400 6250 3300
Wire Wire Line
	6250 3300 6100 3300
Wire Wire Line
	6950 3200 6550 3200
Wire Wire Line
	6850 4150 6850 3450
Wire Wire Line
	6850 3100 6950 3100
Wire Wire Line
	6700 2450 6700 3000
Wire Wire Line
	6700 3000 6950 3000
Wire Wire Line
	6700 3000 6700 3650
Wire Wire Line
	6700 3650 6950 3650
Connection ~ 6700 3000
Wire Wire Line
	6950 3450 6850 3450
Connection ~ 6850 3450
Wire Wire Line
	6850 3450 6850 3100
NoConn ~ 5600 3200
NoConn ~ 5600 3300
NoConn ~ 5300 3250
NoConn ~ 5300 3350
NoConn ~ 5300 3450
NoConn ~ 5300 3550
NoConn ~ 5300 3950
NoConn ~ 5300 4050
NoConn ~ 6950 3550
NoConn ~ 6950 3950
Wire Wire Line
	6550 3850 6550 3200
Connection ~ 6550 3850
Wire Wire Line
	6550 3850 5300 3850
Connection ~ 6550 3200
Wire Wire Line
	6550 3200 6100 3200
Text Label 6650 3850 0    50   ~ 0
RX
Text Label 6650 3750 0    50   ~ 0
TX
$EndSCHEMATC
