(kicad_pcb (version 20171130) (host pcbnew "(5.1.9)-1")

  (general
    (thickness 1.6)
    (drawings 10)
    (tracks 57)
    (zones 0)
    (modules 11)
    (nets 21)
  )

  (page A4)
  (layers
    (0 F.Cu signal)
    (31 B.Cu signal)
    (32 B.Adhes user)
    (33 F.Adhes user)
    (34 B.Paste user)
    (35 F.Paste user)
    (36 B.SilkS user)
    (37 F.SilkS user)
    (38 B.Mask user)
    (39 F.Mask user)
    (40 Dwgs.User user)
    (41 Cmts.User user)
    (42 Eco1.User user)
    (43 Eco2.User user)
    (44 Edge.Cuts user)
    (45 Margin user)
    (46 B.CrtYd user)
    (47 F.CrtYd user)
    (48 B.Fab user)
    (49 F.Fab user)
  )

  (setup
    (last_trace_width 0.4064)
    (user_trace_width 0.4)
    (user_trace_width 0.4064)
    (trace_clearance 0.2)
    (zone_clearance 0.508)
    (zone_45_only no)
    (trace_min 0.2)
    (via_size 0.8)
    (via_drill 0.4)
    (via_min_size 0.4)
    (via_min_drill 0.3)
    (uvia_size 0.3)
    (uvia_drill 0.1)
    (uvias_allowed no)
    (uvia_min_size 0.2)
    (uvia_min_drill 0.1)
    (edge_width 0.05)
    (segment_width 0.2)
    (pcb_text_width 0.3)
    (pcb_text_size 1.5 1.5)
    (mod_edge_width 0.12)
    (mod_text_size 1 1)
    (mod_text_width 0.15)
    (pad_size 1.524 1.524)
    (pad_drill 0.762)
    (pad_to_mask_clearance 0)
    (aux_axis_origin 0 0)
    (visible_elements 7FFFFFFF)
    (pcbplotparams
      (layerselection 0x010fc_ffffffff)
      (usegerberextensions false)
      (usegerberattributes true)
      (usegerberadvancedattributes true)
      (creategerberjobfile true)
      (excludeedgelayer true)
      (linewidth 0.100000)
      (plotframeref false)
      (viasonmask false)
      (mode 1)
      (useauxorigin false)
      (hpglpennumber 1)
      (hpglpenspeed 20)
      (hpglpendiameter 15.000000)
      (psnegative false)
      (psa4output false)
      (plotreference true)
      (plotvalue true)
      (plotinvisibletext false)
      (padsonsilk false)
      (subtractmaskfromsilk false)
      (outputformat 1)
      (mirror false)
      (drillshape 1)
      (scaleselection 1)
      (outputdirectory ""))
  )

  (net 0 "")
  (net 1 GND)
  (net 2 "Net-(C1-Pad2)")
  (net 3 "Net-(C2-Pad1)")
  (net 4 VCC)
  (net 5 "Net-(J2-Pad4)")
  (net 6 "Net-(J2-Pad3)")
  (net 7 "Net-(J2-Pad1)")
  (net 8 "Net-(J4-Pad5)")
  (net 9 "Net-(J4-Pad1)")
  (net 10 "Net-(R1-Pad1)")
  (net 11 "Net-(R2-Pad1)")
  (net 12 "Net-(U1-Pad16)")
  (net 13 "Net-(U1-Pad15)")
  (net 14 "Net-(U1-Pad14)")
  (net 15 "Net-(U1-Pad10)")
  (net 16 "Net-(U1-Pad7)")
  (net 17 "Net-(U1-Pad6)")
  (net 18 "Net-(U1-Pad2)")
  (net 19 /RX)
  (net 20 /TX)

  (net_class Default "This is the default net class."
    (clearance 0.2)
    (trace_width 0.25)
    (via_dia 0.8)
    (via_drill 0.4)
    (uvia_dia 0.3)
    (uvia_drill 0.1)
    (add_net /RX)
    (add_net /TX)
    (add_net GND)
    (add_net "Net-(C1-Pad2)")
    (add_net "Net-(C2-Pad1)")
    (add_net "Net-(J2-Pad1)")
    (add_net "Net-(J2-Pad3)")
    (add_net "Net-(J2-Pad4)")
    (add_net "Net-(J4-Pad1)")
    (add_net "Net-(J4-Pad5)")
    (add_net "Net-(R1-Pad1)")
    (add_net "Net-(R2-Pad1)")
    (add_net "Net-(U1-Pad10)")
    (add_net "Net-(U1-Pad14)")
    (add_net "Net-(U1-Pad15)")
    (add_net "Net-(U1-Pad16)")
    (add_net "Net-(U1-Pad2)")
    (add_net "Net-(U1-Pad6)")
    (add_net "Net-(U1-Pad7)")
    (add_net VCC)
  )

  (module fab:C_1206 (layer F.Cu) (tedit 6002C54C) (tstamp 602774DA)
    (at 31.242 45.466)
    (descr "Capacitor SMD 1206, hand soldering")
    (tags "capacitor 1206")
    (path /60275EC8)
    (attr smd)
    (fp_text reference C2 (at 0 -1.85) (layer F.SilkS)
      (effects (font (size 1 1) (thickness 0.15)))
    )
    (fp_text value 10p (at 0 1.9) (layer F.Fab)
      (effects (font (size 1 1) (thickness 0.15)))
    )
    (fp_line (start -1.6 0.8) (end -1.6 -0.8) (layer F.Fab) (width 0.1))
    (fp_line (start 1.6 0.8) (end -1.6 0.8) (layer F.Fab) (width 0.1))
    (fp_line (start 1.6 -0.8) (end 1.6 0.8) (layer F.Fab) (width 0.1))
    (fp_line (start -1.6 -0.8) (end 1.6 -0.8) (layer F.Fab) (width 0.1))
    (fp_line (start 1 1.07) (end -1 1.07) (layer F.SilkS) (width 0.12))
    (fp_line (start -1 -1.07) (end 1 -1.07) (layer F.SilkS) (width 0.12))
    (fp_line (start -3.25 -1.11) (end 3.25 -1.11) (layer F.CrtYd) (width 0.05))
    (fp_line (start -3.25 -1.11) (end -3.25 1.1) (layer F.CrtYd) (width 0.05))
    (fp_line (start 3.25 1.1) (end 3.25 -1.11) (layer F.CrtYd) (width 0.05))
    (fp_line (start 3.25 1.1) (end -3.25 1.1) (layer F.CrtYd) (width 0.05))
    (fp_text user %R (at 0 0) (layer F.Fab)
      (effects (font (size 0.7 0.7) (thickness 0.105)))
    )
    (pad 1 smd rect (at -2 0) (size 2 1.7) (layers F.Cu F.Paste F.Mask)
      (net 3 "Net-(C2-Pad1)"))
    (pad 2 smd rect (at 2 0) (size 2 1.7) (layers F.Cu F.Paste F.Mask)
      (net 1 GND))
    (model ${FAB}/fab.3dshapes/C_1206.step
      (at (xyz 0 0 0))
      (scale (xyz 1 1 1))
      (rotate (xyz 0 0 0))
    )
  )

  (module Package_SO:SSOP-16_3.9x4.9mm_P0.635mm (layer F.Cu) (tedit 5A02F25C) (tstamp 602775C1)
    (at 38.989 49.784 270)
    (descr "SSOP16: plastic shrink small outline package; 16 leads; body width 3.9 mm; lead pitch 0.635; (see NXP SSOP-TSSOP-VSO-REFLOW.pdf and sot519-1_po.pdf)")
    (tags "SSOP 0.635")
    (path /6026F555)
    (attr smd)
    (fp_text reference U1 (at 0 -3.5 90) (layer F.SilkS)
      (effects (font (size 1 1) (thickness 0.15)))
    )
    (fp_text value FT230XS (at 0 3.5 90) (layer F.Fab)
      (effects (font (size 1 1) (thickness 0.15)))
    )
    (fp_line (start -0.95 -2.45) (end 1.95 -2.45) (layer F.Fab) (width 0.15))
    (fp_line (start 1.95 -2.45) (end 1.95 2.45) (layer F.Fab) (width 0.15))
    (fp_line (start 1.95 2.45) (end -1.95 2.45) (layer F.Fab) (width 0.15))
    (fp_line (start -1.95 2.45) (end -1.95 -1.45) (layer F.Fab) (width 0.15))
    (fp_line (start -1.95 -1.45) (end -0.95 -2.45) (layer F.Fab) (width 0.15))
    (fp_line (start -3.45 -2.85) (end -3.45 2.8) (layer F.CrtYd) (width 0.05))
    (fp_line (start 3.45 -2.85) (end 3.45 2.8) (layer F.CrtYd) (width 0.05))
    (fp_line (start -3.45 -2.85) (end 3.45 -2.85) (layer F.CrtYd) (width 0.05))
    (fp_line (start -3.45 2.8) (end 3.45 2.8) (layer F.CrtYd) (width 0.05))
    (fp_line (start -2 2.675) (end 2 2.675) (layer F.SilkS) (width 0.15))
    (fp_line (start -3.275 -2.725) (end 2 -2.725) (layer F.SilkS) (width 0.15))
    (fp_text user %R (at 0 0 90) (layer F.Fab)
      (effects (font (size 0.8 0.8) (thickness 0.15)))
    )
    (pad 16 smd rect (at 2.6 -2.2225 270) (size 1.2 0.4) (layers F.Cu F.Paste F.Mask)
      (net 12 "Net-(U1-Pad16)"))
    (pad 15 smd rect (at 2.6 -1.5875 270) (size 1.2 0.4) (layers F.Cu F.Paste F.Mask)
      (net 13 "Net-(U1-Pad15)"))
    (pad 14 smd rect (at 2.6 -0.9525 270) (size 1.2 0.4) (layers F.Cu F.Paste F.Mask)
      (net 14 "Net-(U1-Pad14)"))
    (pad 13 smd rect (at 2.6 -0.3175 270) (size 1.2 0.4) (layers F.Cu F.Paste F.Mask)
      (net 1 GND))
    (pad 12 smd rect (at 2.6 0.3175 270) (size 1.2 0.4) (layers F.Cu F.Paste F.Mask)
      (net 4 VCC))
    (pad 11 smd rect (at 2.6 0.9525 270) (size 1.2 0.4) (layers F.Cu F.Paste F.Mask)
      (net 15 "Net-(U1-Pad10)"))
    (pad 10 smd rect (at 2.6 1.5875 270) (size 1.2 0.4) (layers F.Cu F.Paste F.Mask)
      (net 15 "Net-(U1-Pad10)"))
    (pad 9 smd rect (at 2.6 2.2225 270) (size 1.2 0.4) (layers F.Cu F.Paste F.Mask)
      (net 10 "Net-(R1-Pad1)"))
    (pad 8 smd rect (at -2.6 2.2225 270) (size 1.2 0.4) (layers F.Cu F.Paste F.Mask)
      (net 11 "Net-(R2-Pad1)"))
    (pad 7 smd rect (at -2.6 1.5875 270) (size 1.2 0.4) (layers F.Cu F.Paste F.Mask)
      (net 16 "Net-(U1-Pad7)"))
    (pad 6 smd rect (at -2.6 0.9525 270) (size 1.2 0.4) (layers F.Cu F.Paste F.Mask)
      (net 17 "Net-(U1-Pad6)"))
    (pad 5 smd rect (at -2.6 0.3175 270) (size 1.2 0.4) (layers F.Cu F.Paste F.Mask)
      (net 1 GND))
    (pad 4 smd rect (at -2.6 -0.3175 270) (size 1.2 0.4) (layers F.Cu F.Paste F.Mask)
      (net 19 /RX))
    (pad 3 smd rect (at -2.6 -0.9525 270) (size 1.2 0.4) (layers F.Cu F.Paste F.Mask)
      (net 15 "Net-(U1-Pad10)"))
    (pad 2 smd rect (at -2.6 -1.5875 270) (size 1.2 0.4) (layers F.Cu F.Paste F.Mask)
      (net 18 "Net-(U1-Pad2)"))
    (pad 1 smd rect (at -2.6 -2.2225 270) (size 1.2 0.4) (layers F.Cu F.Paste F.Mask)
      (net 20 /TX))
    (model ${KISYS3DMOD}/Package_SO.3dshapes/SSOP-16_3.9x4.9mm_P0.635mm.wrl
      (at (xyz 0 0 0))
      (scale (xyz 1 1 1))
      (rotate (xyz 0 0 0))
    )
  )

  (module fab:R_1206 (layer F.Cu) (tedit 60020482) (tstamp 602775A1)
    (at 47.117 47.752)
    (descr "Resistor SMD 1206, hand soldering")
    (tags "resistor 1206")
    (path /6027D546)
    (attr smd)
    (fp_text reference R3 (at 0 -1.85) (layer F.SilkS)
      (effects (font (size 1 1) (thickness 0.15)))
    )
    (fp_text value 4,9k (at 0 1.9) (layer F.Fab)
      (effects (font (size 1 1) (thickness 0.15)))
    )
    (fp_line (start 3.25 1.1) (end -3.25 1.1) (layer F.CrtYd) (width 0.05))
    (fp_line (start 3.25 1.1) (end 3.25 -1.11) (layer F.CrtYd) (width 0.05))
    (fp_line (start -3.25 -1.11) (end -3.25 1.1) (layer F.CrtYd) (width 0.05))
    (fp_line (start -3.25 -1.11) (end 3.25 -1.11) (layer F.CrtYd) (width 0.05))
    (fp_line (start -1 -1.07) (end 1 -1.07) (layer F.SilkS) (width 0.12))
    (fp_line (start 1 1.07) (end -1 1.07) (layer F.SilkS) (width 0.12))
    (fp_line (start -1.6 -0.8) (end 1.6 -0.8) (layer F.Fab) (width 0.1))
    (fp_line (start 1.6 -0.8) (end 1.6 0.8) (layer F.Fab) (width 0.1))
    (fp_line (start 1.6 0.8) (end -1.6 0.8) (layer F.Fab) (width 0.1))
    (fp_line (start -1.6 0.8) (end -1.6 -0.8) (layer F.Fab) (width 0.1))
    (fp_text user %R (at 0 0) (layer F.Fab)
      (effects (font (size 0.7 0.7) (thickness 0.105)))
    )
    (pad 2 smd rect (at 2 0) (size 2 1.7) (layers F.Cu F.Paste F.Mask)
      (net 7 "Net-(J2-Pad1)"))
    (pad 1 smd rect (at -2 0) (size 2 1.7) (layers F.Cu F.Paste F.Mask)
      (net 20 /TX))
    (model ${FAB}/fab.3dshapes/R_1206.step
      (at (xyz 0 0 0))
      (scale (xyz 1 1 1))
      (rotate (xyz 0 0 0))
    )
  )

  (module fab:R_1206 (layer F.Cu) (tedit 60020482) (tstamp 60277590)
    (at 31.242 48.26 180)
    (descr "Resistor SMD 1206, hand soldering")
    (tags "resistor 1206")
    (path /60278836)
    (attr smd)
    (fp_text reference R2 (at 0 -1.85) (layer F.SilkS)
      (effects (font (size 1 1) (thickness 0.15)))
    )
    (fp_text value 49 (at 0 1.9) (layer F.Fab)
      (effects (font (size 1 1) (thickness 0.15)))
    )
    (fp_line (start -1.6 0.8) (end -1.6 -0.8) (layer F.Fab) (width 0.1))
    (fp_line (start 1.6 0.8) (end -1.6 0.8) (layer F.Fab) (width 0.1))
    (fp_line (start 1.6 -0.8) (end 1.6 0.8) (layer F.Fab) (width 0.1))
    (fp_line (start -1.6 -0.8) (end 1.6 -0.8) (layer F.Fab) (width 0.1))
    (fp_line (start 1 1.07) (end -1 1.07) (layer F.SilkS) (width 0.12))
    (fp_line (start -1 -1.07) (end 1 -1.07) (layer F.SilkS) (width 0.12))
    (fp_line (start -3.25 -1.11) (end 3.25 -1.11) (layer F.CrtYd) (width 0.05))
    (fp_line (start -3.25 -1.11) (end -3.25 1.1) (layer F.CrtYd) (width 0.05))
    (fp_line (start 3.25 1.1) (end 3.25 -1.11) (layer F.CrtYd) (width 0.05))
    (fp_line (start 3.25 1.1) (end -3.25 1.1) (layer F.CrtYd) (width 0.05))
    (fp_text user %R (at 0 0) (layer F.Fab)
      (effects (font (size 0.7 0.7) (thickness 0.105)))
    )
    (pad 1 smd rect (at -2 0 180) (size 2 1.7) (layers F.Cu F.Paste F.Mask)
      (net 11 "Net-(R2-Pad1)"))
    (pad 2 smd rect (at 2 0 180) (size 2 1.7) (layers F.Cu F.Paste F.Mask)
      (net 3 "Net-(C2-Pad1)"))
    (model ${FAB}/fab.3dshapes/R_1206.step
      (at (xyz 0 0 0))
      (scale (xyz 1 1 1))
      (rotate (xyz 0 0 0))
    )
  )

  (module fab:R_1206 (layer F.Cu) (tedit 60020482) (tstamp 6027757F)
    (at 31.242 51.054 180)
    (descr "Resistor SMD 1206, hand soldering")
    (tags "resistor 1206")
    (path /60277A69)
    (attr smd)
    (fp_text reference R1 (at 0 -1.85) (layer F.SilkS)
      (effects (font (size 1 1) (thickness 0.15)))
    )
    (fp_text value 49 (at 0 1.9) (layer F.Fab)
      (effects (font (size 1 1) (thickness 0.15)))
    )
    (fp_line (start -1.6 0.8) (end -1.6 -0.8) (layer F.Fab) (width 0.1))
    (fp_line (start 1.6 0.8) (end -1.6 0.8) (layer F.Fab) (width 0.1))
    (fp_line (start 1.6 -0.8) (end 1.6 0.8) (layer F.Fab) (width 0.1))
    (fp_line (start -1.6 -0.8) (end 1.6 -0.8) (layer F.Fab) (width 0.1))
    (fp_line (start 1 1.07) (end -1 1.07) (layer F.SilkS) (width 0.12))
    (fp_line (start -1 -1.07) (end 1 -1.07) (layer F.SilkS) (width 0.12))
    (fp_line (start -3.25 -1.11) (end 3.25 -1.11) (layer F.CrtYd) (width 0.05))
    (fp_line (start -3.25 -1.11) (end -3.25 1.1) (layer F.CrtYd) (width 0.05))
    (fp_line (start 3.25 1.1) (end 3.25 -1.11) (layer F.CrtYd) (width 0.05))
    (fp_line (start 3.25 1.1) (end -3.25 1.1) (layer F.CrtYd) (width 0.05))
    (fp_text user %R (at 0 0) (layer F.Fab)
      (effects (font (size 0.7 0.7) (thickness 0.105)))
    )
    (pad 1 smd rect (at -2 0 180) (size 2 1.7) (layers F.Cu F.Paste F.Mask)
      (net 10 "Net-(R1-Pad1)"))
    (pad 2 smd rect (at 2 0 180) (size 2 1.7) (layers F.Cu F.Paste F.Mask)
      (net 2 "Net-(C1-Pad2)"))
    (model ${FAB}/fab.3dshapes/R_1206.step
      (at (xyz 0 0 0))
      (scale (xyz 1 1 1))
      (rotate (xyz 0 0 0))
    )
  )

  (module fab:Header_SMD_01x06_P2.54mm_Horizontal_Male (layer F.Cu) (tedit 5FFC9606) (tstamp 6027756E)
    (at 58.928 52.832 270)
    (descr https://s3.amazonaws.com/catalogspreads-pdf/PAGE112-113%20.100%20MALE%20HDR.pdf)
    (tags "horizontal pin header SMD 2.54mm")
    (path /602840F7)
    (attr smd)
    (fp_text reference J4 (at -1.524 -2.54 270) (layer F.SilkS)
      (effects (font (size 1 1) (thickness 0.15)) (justify right))
    )
    (fp_text value Conn_01x06_Male (at 2.286 15.621 90) (layer F.Fab)
      (effects (font (size 1 1) (thickness 0.15)))
    )
    (fp_line (start -0.635 12.446) (end -0.635 12.954) (layer F.Fab) (width 0.1))
    (fp_line (start -0.635 9.906) (end -0.635 10.414) (layer F.Fab) (width 0.1))
    (fp_line (start -0.635 7.366) (end -0.635 7.874) (layer F.Fab) (width 0.1))
    (fp_line (start -0.635 4.826) (end -0.635 5.334) (layer F.Fab) (width 0.1))
    (fp_line (start -0.635 2.286) (end -0.635 2.794) (layer F.Fab) (width 0.1))
    (fp_line (start -0.635 -0.254) (end -0.635 0.254) (layer F.Fab) (width 0.1))
    (fp_line (start 3.81 12.954) (end 1.27 12.954) (layer F.SilkS) (width 0.12))
    (fp_line (start 3.81 12.446) (end 1.27 12.446) (layer F.SilkS) (width 0.12))
    (fp_line (start 3.81 10.414) (end 1.27 10.414) (layer F.SilkS) (width 0.12))
    (fp_line (start 3.81 9.906) (end 1.27 9.906) (layer F.SilkS) (width 0.12))
    (fp_line (start 3.81 7.874) (end 1.27 7.874) (layer F.SilkS) (width 0.12))
    (fp_line (start 3.81 7.366) (end 1.27 7.366) (layer F.SilkS) (width 0.12))
    (fp_line (start 3.81 5.334) (end 1.27 5.334) (layer F.SilkS) (width 0.12))
    (fp_line (start 3.81 4.826) (end 1.27 4.826) (layer F.SilkS) (width 0.12))
    (fp_line (start 3.81 2.794) (end 1.27 2.794) (layer F.SilkS) (width 0.12))
    (fp_line (start 3.81 2.286) (end 1.27 2.286) (layer F.SilkS) (width 0.12))
    (fp_line (start 3.81 0.254) (end 1.27 0.254) (layer F.SilkS) (width 0.12))
    (fp_line (start 3.81 -0.254) (end 1.27 -0.254) (layer F.SilkS) (width 0.12))
    (fp_line (start 3.81 13.97) (end 3.81 -1.27) (layer F.SilkS) (width 0.12))
    (fp_line (start 6.35 13.97) (end 3.81 13.97) (layer F.SilkS) (width 0.12))
    (fp_line (start 6.35 -1.27) (end 6.35 13.97) (layer F.SilkS) (width 0.12))
    (fp_line (start 3.81 -1.27) (end 6.35 -1.27) (layer F.SilkS) (width 0.12))
    (fp_line (start 3.81 12.7) (end -0.635 12.7) (layer F.Fab) (width 0.1))
    (fp_line (start 3.81 10.16) (end -0.635 10.16) (layer F.Fab) (width 0.1))
    (fp_line (start 3.81 7.62) (end -0.635 7.62) (layer F.Fab) (width 0.1))
    (fp_line (start 3.81 5.08) (end -0.635 5.08) (layer F.Fab) (width 0.1))
    (fp_line (start 3.81 2.54) (end -0.635 2.54) (layer F.Fab) (width 0.1))
    (fp_line (start 3.81 0) (end -0.635 0) (layer F.Fab) (width 0.1))
    (fp_line (start 6.34 -1.27) (end 6.35 13.97) (layer F.Fab) (width 0.1))
    (fp_line (start 3.8 13.97) (end 6.35 13.97) (layer F.Fab) (width 0.1))
    (fp_line (start 3.8 -1.27) (end 6.34 -1.27) (layer F.Fab) (width 0.1))
    (fp_line (start 3.8 13.97) (end 3.8 -1.27) (layer F.Fab) (width 0.1))
    (fp_line (start -1.27 -1.27) (end 0 -1.27) (layer F.SilkS) (width 0.12))
    (fp_line (start -1.8 -1.8) (end -1.8 14.5) (layer F.CrtYd) (width 0.05))
    (fp_line (start -1.8 14.5) (end 6.4 14.5) (layer F.CrtYd) (width 0.05))
    (fp_line (start 6.4 14.5) (end 6.4 -1.8) (layer F.CrtYd) (width 0.05))
    (fp_line (start 6.4 -1.8) (end -1.8 -1.8) (layer F.CrtYd) (width 0.05))
    (fp_text user %R (at 2.6 6.1) (layer F.Fab)
      (effects (font (size 1 1) (thickness 0.15)))
    )
    (pad 6 smd rect (at 0 12.7 270) (size 2.5 1.7) (layers F.Cu F.Paste F.Mask)
      (net 1 GND))
    (pad 5 smd rect (at 0 10.16 270) (size 2.5 1.7) (layers F.Cu F.Paste F.Mask)
      (net 8 "Net-(J4-Pad5)"))
    (pad 4 smd rect (at 0 7.62 270) (size 2.5 1.7) (layers F.Cu F.Paste F.Mask)
      (net 4 VCC))
    (pad 3 smd rect (at 0 5.08 270) (size 2.5 1.7) (layers F.Cu F.Paste F.Mask)
      (net 20 /TX))
    (pad 2 smd rect (at 0 2.54 270) (size 2.5 1.7) (layers F.Cu F.Paste F.Mask)
      (net 19 /RX))
    (pad 1 smd rect (at 0 0 270) (size 2.5 1.7) (layers F.Cu F.Paste F.Mask)
      (net 9 "Net-(J4-Pad1)"))
    (model ${FAB}/fab.3dshapes/Header_SMD_01x06_P2.54mm_Horizontal_Male.step
      (at (xyz 0 0 0))
      (scale (xyz 1 1 1))
      (rotate (xyz 0 0 0))
    )
  )

  (module fab:Header_SMD_01x03_P2.54mm_Horizontal_Male (layer F.Cu) (tedit 5FFC95A6) (tstamp 6027753E)
    (at 54.356 46.355 90)
    (descr https://s3.amazonaws.com/catalogspreads-pdf/PAGE112-113%20.100%20MALE%20HDR.pdf)
    (tags "horizontal pin header SMD 2.54mm")
    (path /6028139B)
    (attr smd)
    (fp_text reference J3 (at -1.524 -2.54 270) (layer F.SilkS)
      (effects (font (size 1 1) (thickness 0.15)) (justify left))
    )
    (fp_text value Conn_01x03_Male (at 2.6 8.3 90) (layer F.Fab)
      (effects (font (size 1 1) (thickness 0.15)))
    )
    (fp_line (start 6.4 -1.8) (end -1.8 -1.8) (layer F.CrtYd) (width 0.05))
    (fp_line (start 6.4 6.9) (end 6.4 -1.8) (layer F.CrtYd) (width 0.05))
    (fp_line (start -1.8 6.9) (end 6.4 6.9) (layer F.CrtYd) (width 0.05))
    (fp_line (start -1.8 -1.8) (end -1.8 6.9) (layer F.CrtYd) (width 0.05))
    (fp_line (start -1.27 -1.27) (end 0 -1.27) (layer F.SilkS) (width 0.12))
    (fp_line (start 3.81 6.35) (end 3.8 -1.27) (layer F.Fab) (width 0.1))
    (fp_line (start 3.8 -1.27) (end 6.34 -1.27) (layer F.Fab) (width 0.1))
    (fp_line (start 3.8 6.35) (end 6.35 6.35) (layer F.Fab) (width 0.1))
    (fp_line (start 6.34 -1.27) (end 6.35 6.35) (layer F.Fab) (width 0.1))
    (fp_line (start 3.81 0) (end -0.635 0) (layer F.Fab) (width 0.1))
    (fp_line (start 3.81 2.54) (end -0.635 2.54) (layer F.Fab) (width 0.1))
    (fp_line (start 3.81 5.08) (end -0.635 5.08) (layer F.Fab) (width 0.1))
    (fp_line (start 3.81 -1.27) (end 6.35 -1.27) (layer F.SilkS) (width 0.12))
    (fp_line (start 6.35 -1.27) (end 6.35 6.35) (layer F.SilkS) (width 0.12))
    (fp_line (start 6.35 6.35) (end 3.81 6.35) (layer F.SilkS) (width 0.12))
    (fp_line (start 3.81 6.35) (end 3.81 -1.27) (layer F.SilkS) (width 0.12))
    (fp_line (start 3.81 -0.254) (end 1.27 -0.254) (layer F.SilkS) (width 0.12))
    (fp_line (start 3.81 0.254) (end 1.27 0.254) (layer F.SilkS) (width 0.12))
    (fp_line (start 3.81 2.286) (end 1.27 2.286) (layer F.SilkS) (width 0.12))
    (fp_line (start 3.81 2.794) (end 1.27 2.794) (layer F.SilkS) (width 0.12))
    (fp_line (start 3.81 4.826) (end 1.27 4.826) (layer F.SilkS) (width 0.12))
    (fp_line (start 3.81 5.334) (end 1.27 5.334) (layer F.SilkS) (width 0.12))
    (fp_line (start -0.635 -0.254) (end -0.635 0.254) (layer F.Fab) (width 0.1))
    (fp_line (start -0.635 2.286) (end -0.635 2.794) (layer F.Fab) (width 0.1))
    (fp_line (start -0.635 4.826) (end -0.635 5.334) (layer F.Fab) (width 0.1))
    (fp_text user %R (at 2.4 2.6) (layer F.Fab)
      (effects (font (size 1 1) (thickness 0.15)))
    )
    (pad 3 smd rect (at 0 5.08 90) (size 2.5 1.7) (layers F.Cu F.Paste F.Mask)
      (net 4 VCC))
    (pad 2 smd rect (at 0 2.54 90) (size 2.5 1.7) (layers F.Cu F.Paste F.Mask)
      (net 1 GND))
    (pad 1 smd rect (at 0 0 90) (size 2.5 1.7) (layers F.Cu F.Paste F.Mask)
      (net 19 /RX))
    (model "$(FAB)/fab.3dshapes/Header_SMD_01x03_P2.54mm_Horizontal_Male.step"
      (at (xyz 0 0 0))
      (scale (xyz 1 1 1))
      (rotate (xyz 0 0 0))
    )
  )

  (module Connector_PinHeader_2.54mm:PinHeader_2x02_P2.54mm_Vertical_SMD (layer F.Cu) (tedit 59FED5CC) (tstamp 6027751D)
    (at 46.609 43.053 180)
    (descr "surface-mounted straight pin header, 2x02, 2.54mm pitch, double rows")
    (tags "Surface mounted pin header SMD 2x02 2.54mm double row")
    (path /6027F54C)
    (attr smd)
    (fp_text reference J2 (at 0 -3.6) (layer F.SilkS)
      (effects (font (size 1 1) (thickness 0.15)))
    )
    (fp_text value Conn_02x02_Counter_Clockwise (at 0 3.6) (layer F.Fab)
      (effects (font (size 1 1) (thickness 0.15)))
    )
    (fp_line (start 2.54 2.54) (end -2.54 2.54) (layer F.Fab) (width 0.1))
    (fp_line (start -1.59 -2.54) (end 2.54 -2.54) (layer F.Fab) (width 0.1))
    (fp_line (start -2.54 2.54) (end -2.54 -1.59) (layer F.Fab) (width 0.1))
    (fp_line (start -2.54 -1.59) (end -1.59 -2.54) (layer F.Fab) (width 0.1))
    (fp_line (start 2.54 -2.54) (end 2.54 2.54) (layer F.Fab) (width 0.1))
    (fp_line (start -2.54 -1.59) (end -3.6 -1.59) (layer F.Fab) (width 0.1))
    (fp_line (start -3.6 -1.59) (end -3.6 -0.95) (layer F.Fab) (width 0.1))
    (fp_line (start -3.6 -0.95) (end -2.54 -0.95) (layer F.Fab) (width 0.1))
    (fp_line (start 2.54 -1.59) (end 3.6 -1.59) (layer F.Fab) (width 0.1))
    (fp_line (start 3.6 -1.59) (end 3.6 -0.95) (layer F.Fab) (width 0.1))
    (fp_line (start 3.6 -0.95) (end 2.54 -0.95) (layer F.Fab) (width 0.1))
    (fp_line (start -2.54 0.95) (end -3.6 0.95) (layer F.Fab) (width 0.1))
    (fp_line (start -3.6 0.95) (end -3.6 1.59) (layer F.Fab) (width 0.1))
    (fp_line (start -3.6 1.59) (end -2.54 1.59) (layer F.Fab) (width 0.1))
    (fp_line (start 2.54 0.95) (end 3.6 0.95) (layer F.Fab) (width 0.1))
    (fp_line (start 3.6 0.95) (end 3.6 1.59) (layer F.Fab) (width 0.1))
    (fp_line (start 3.6 1.59) (end 2.54 1.59) (layer F.Fab) (width 0.1))
    (fp_line (start -2.6 -2.6) (end 2.6 -2.6) (layer F.SilkS) (width 0.12))
    (fp_line (start -2.6 2.6) (end 2.6 2.6) (layer F.SilkS) (width 0.12))
    (fp_line (start -4.04 -2.03) (end -2.6 -2.03) (layer F.SilkS) (width 0.12))
    (fp_line (start -2.6 -2.6) (end -2.6 -2.03) (layer F.SilkS) (width 0.12))
    (fp_line (start 2.6 -2.6) (end 2.6 -2.03) (layer F.SilkS) (width 0.12))
    (fp_line (start -2.6 2.03) (end -2.6 2.6) (layer F.SilkS) (width 0.12))
    (fp_line (start 2.6 2.03) (end 2.6 2.6) (layer F.SilkS) (width 0.12))
    (fp_line (start -2.6 -0.51) (end -2.6 0.51) (layer F.SilkS) (width 0.12))
    (fp_line (start 2.6 -0.51) (end 2.6 0.51) (layer F.SilkS) (width 0.12))
    (fp_line (start -5.9 -3.05) (end -5.9 3.05) (layer F.CrtYd) (width 0.05))
    (fp_line (start -5.9 3.05) (end 5.9 3.05) (layer F.CrtYd) (width 0.05))
    (fp_line (start 5.9 3.05) (end 5.9 -3.05) (layer F.CrtYd) (width 0.05))
    (fp_line (start 5.9 -3.05) (end -5.9 -3.05) (layer F.CrtYd) (width 0.05))
    (fp_text user %R (at 0 0 90) (layer F.Fab)
      (effects (font (size 1 1) (thickness 0.15)))
    )
    (pad 4 smd rect (at 2.525 1.27 180) (size 3.15 1) (layers F.Cu F.Paste F.Mask)
      (net 5 "Net-(J2-Pad4)"))
    (pad 3 smd rect (at -2.525 1.27 180) (size 3.15 1) (layers F.Cu F.Paste F.Mask)
      (net 6 "Net-(J2-Pad3)"))
    (pad 2 smd rect (at 2.525 -1.27 180) (size 3.15 1) (layers F.Cu F.Paste F.Mask)
      (net 19 /RX))
    (pad 1 smd rect (at -2.525 -1.27 180) (size 3.15 1) (layers F.Cu F.Paste F.Mask)
      (net 7 "Net-(J2-Pad1)"))
    (model ${KISYS3DMOD}/Connector_PinHeader_2.54mm.3dshapes/PinHeader_2x02_P2.54mm_Vertical_SMD.wrl
      (at (xyz 0 0 0))
      (scale (xyz 1 1 1))
      (rotate (xyz 0 0 0))
    )
  )

  (module fab:fab-USB_A_male_plug (layer F.Cu) (tedit 542BB0AF) (tstamp 602774F6)
    (at 14.097 49.657 270)
    (path /602709A9)
    (attr virtual)
    (fp_text reference J1 (at 0.13 -7.85 90) (layer F.SilkS) hide
      (effects (font (size 1.5 1.5) (thickness 0.15)))
    )
    (fp_text value USB_A_PLUG (at 0.29 -10.13 90) (layer F.SilkS) hide
      (effects (font (size 1.5 1.5) (thickness 0.15)))
    )
    (fp_line (start 6.03 0) (end 6.03 -12) (layer Dwgs.User) (width 0.15))
    (fp_line (start 6.03 0) (end -6.03 0) (layer Dwgs.User) (width 0.15))
    (fp_line (start -6.03 0) (end -6.03 -12) (layer Dwgs.User) (width 0.15))
    (pad 2 connect rect (at 1.3 -5.15 270) (size 2 7.5) (layers F.Cu F.Mask)
      (net 2 "Net-(C1-Pad2)"))
    (pad 3 connect rect (at -1.3 -5.15 270) (size 2 7.5) (layers F.Cu F.Mask)
      (net 3 "Net-(C2-Pad1)"))
    (pad 4 connect rect (at -3.81 -4.9 270) (size 1.9 8) (layers F.Cu F.Mask)
      (net 1 GND))
    (pad 1 connect rect (at 3.81 -4.9 270) (size 1.9 8) (layers F.Cu F.Mask)
      (net 4 VCC))
  )

  (module fab:C_1206 (layer F.Cu) (tedit 6002C54C) (tstamp 602774EB)
    (at 39.116 55.118)
    (descr "Capacitor SMD 1206, hand soldering")
    (tags "capacitor 1206")
    (path /60276E1F)
    (attr smd)
    (fp_text reference C3 (at 0 -1.85) (layer F.SilkS)
      (effects (font (size 1 1) (thickness 0.15)))
    )
    (fp_text value 10p (at 0 1.9) (layer F.Fab)
      (effects (font (size 1 1) (thickness 0.15)))
    )
    (fp_line (start -1.6 0.8) (end -1.6 -0.8) (layer F.Fab) (width 0.1))
    (fp_line (start 1.6 0.8) (end -1.6 0.8) (layer F.Fab) (width 0.1))
    (fp_line (start 1.6 -0.8) (end 1.6 0.8) (layer F.Fab) (width 0.1))
    (fp_line (start -1.6 -0.8) (end 1.6 -0.8) (layer F.Fab) (width 0.1))
    (fp_line (start 1 1.07) (end -1 1.07) (layer F.SilkS) (width 0.12))
    (fp_line (start -1 -1.07) (end 1 -1.07) (layer F.SilkS) (width 0.12))
    (fp_line (start -3.25 -1.11) (end 3.25 -1.11) (layer F.CrtYd) (width 0.05))
    (fp_line (start -3.25 -1.11) (end -3.25 1.1) (layer F.CrtYd) (width 0.05))
    (fp_line (start 3.25 1.1) (end 3.25 -1.11) (layer F.CrtYd) (width 0.05))
    (fp_line (start 3.25 1.1) (end -3.25 1.1) (layer F.CrtYd) (width 0.05))
    (fp_text user %R (at 0 0) (layer F.Fab)
      (effects (font (size 0.7 0.7) (thickness 0.105)))
    )
    (pad 1 smd rect (at -2 0) (size 2 1.7) (layers F.Cu F.Paste F.Mask)
      (net 4 VCC))
    (pad 2 smd rect (at 2 0) (size 2 1.7) (layers F.Cu F.Paste F.Mask)
      (net 1 GND))
    (model ${FAB}/fab.3dshapes/C_1206.step
      (at (xyz 0 0 0))
      (scale (xyz 1 1 1))
      (rotate (xyz 0 0 0))
    )
  )

  (module fab:C_1206 (layer F.Cu) (tedit 6002C54C) (tstamp 602774C9)
    (at 31.242 53.848 180)
    (descr "Capacitor SMD 1206, hand soldering")
    (tags "capacitor 1206")
    (path /602741C1)
    (attr smd)
    (fp_text reference C1 (at 0 -1.85) (layer F.SilkS)
      (effects (font (size 1 1) (thickness 0.15)))
    )
    (fp_text value 10p (at 0 1.9) (layer F.Fab)
      (effects (font (size 1 1) (thickness 0.15)))
    )
    (fp_line (start -1.6 0.8) (end -1.6 -0.8) (layer F.Fab) (width 0.1))
    (fp_line (start 1.6 0.8) (end -1.6 0.8) (layer F.Fab) (width 0.1))
    (fp_line (start 1.6 -0.8) (end 1.6 0.8) (layer F.Fab) (width 0.1))
    (fp_line (start -1.6 -0.8) (end 1.6 -0.8) (layer F.Fab) (width 0.1))
    (fp_line (start 1 1.07) (end -1 1.07) (layer F.SilkS) (width 0.12))
    (fp_line (start -1 -1.07) (end 1 -1.07) (layer F.SilkS) (width 0.12))
    (fp_line (start -3.25 -1.11) (end 3.25 -1.11) (layer F.CrtYd) (width 0.05))
    (fp_line (start -3.25 -1.11) (end -3.25 1.1) (layer F.CrtYd) (width 0.05))
    (fp_line (start 3.25 1.1) (end 3.25 -1.11) (layer F.CrtYd) (width 0.05))
    (fp_line (start 3.25 1.1) (end -3.25 1.1) (layer F.CrtYd) (width 0.05))
    (fp_text user %R (at 0 0) (layer F.Fab)
      (effects (font (size 0.7 0.7) (thickness 0.105)))
    )
    (pad 1 smd rect (at -2 0 180) (size 2 1.7) (layers F.Cu F.Paste F.Mask)
      (net 1 GND))
    (pad 2 smd rect (at 2 0 180) (size 2 1.7) (layers F.Cu F.Paste F.Mask)
      (net 2 "Net-(C1-Pad2)"))
    (model ${FAB}/fab.3dshapes/C_1206.step
      (at (xyz 0 0 0))
      (scale (xyz 1 1 1))
      (rotate (xyz 0 0 0))
    )
  )

  (gr_text R (at 56.388 56.007 90) (layer F.Cu)
    (effects (font (size 1.6 1.6) (thickness 0.4)))
  )
  (gr_text T (at 53.8607 55.9562 90) (layer F.Cu)
    (effects (font (size 1.6 1.6) (thickness 0.4)))
  )
  (gr_line (start 26.1112 39.9288) (end 26.1112 43.6118) (layer Edge.Cuts) (width 0.05) (tstamp 60278A8A))
  (gr_line (start 61.3156 39.9288) (end 26.1112 39.9288) (layer Edge.Cuts) (width 0.05))
  (gr_line (start 61.3156 59.309) (end 61.3156 39.9288) (layer Edge.Cuts) (width 0.05))
  (gr_line (start 26.1112 59.309) (end 61.3156 59.309) (layer Edge.Cuts) (width 0.05))
  (gr_line (start 26.1112 55.7022) (end 26.1112 59.309) (layer Edge.Cuts) (width 0.05))
  (gr_line (start 14.097 55.7022) (end 26.1112 55.7022) (layer Edge.Cuts) (width 0.05))
  (gr_line (start 14.097 43.6118) (end 14.097 55.7022) (layer Edge.Cuts) (width 0.05))
  (gr_line (start 26.1112 43.6118) (end 14.097 43.6118) (layer Edge.Cuts) (width 0.05))

  (segment (start 29.145 50.957) (end 29.242 51.054) (width 0.4064) (layer F.Cu) (net 2))
  (segment (start 19.247 50.957) (end 29.145 50.957) (width 0.4064) (layer F.Cu) (net 2))
  (segment (start 29.242 51.054) (end 29.242 53.848) (width 0.4064) (layer F.Cu) (net 2))
  (segment (start 29.145 48.357) (end 29.242 48.26) (width 0.4064) (layer F.Cu) (net 3))
  (segment (start 19.247 48.357) (end 29.145 48.357) (width 0.4064) (layer F.Cu) (net 3))
  (segment (start 29.242 45.466) (end 29.242 48.26) (width 0.4064) (layer F.Cu) (net 3))
  (segment (start 18.997 53.467) (end 25.019 53.467) (width 0.4064) (layer F.Cu) (net 4))
  (segment (start 25.019 53.467) (end 29.464 57.912) (width 0.4064) (layer F.Cu) (net 4))
  (segment (start 29.464 57.912) (end 38.608 57.912) (width 0.4064) (layer F.Cu) (net 4))
  (segment (start 38.6715 52.384) (end 38.6715 55.0545) (width 0.4) (layer F.Cu) (net 4))
  (segment (start 59.436 48.133) (end 59.436 46.355) (width 0.4064) (layer F.Cu) (net 4))
  (segment (start 60.579 56.642) (end 60.579 49.276) (width 0.4064) (layer F.Cu) (net 4))
  (segment (start 59.309 57.912) (end 60.579 56.642) (width 0.4064) (layer F.Cu) (net 4))
  (segment (start 60.579 49.276) (end 59.436 48.133) (width 0.4064) (layer F.Cu) (net 4))
  (segment (start 51.308 57.785) (end 51.181 57.912) (width 0.4064) (layer F.Cu) (net 4))
  (segment (start 51.308 52.832) (end 51.308 57.785) (width 0.4064) (layer F.Cu) (net 4))
  (segment (start 51.181 57.912) (end 59.309 57.912) (width 0.4064) (layer F.Cu) (net 4))
  (segment (start 38.608 57.912) (end 51.181 57.912) (width 0.4064) (layer F.Cu) (net 4))
  (segment (start 38.6715 57.8485) (end 38.608 57.912) (width 0.4064) (layer F.Cu) (net 4))
  (segment (start 38.6715 55.0545) (end 38.6715 57.8485) (width 0.4064) (layer F.Cu) (net 4))
  (segment (start 38.608 55.118) (end 38.6715 55.0545) (width 0.4064) (layer F.Cu) (net 4))
  (segment (start 37.116 55.118) (end 38.608 55.118) (width 0.4064) (layer F.Cu) (net 4))
  (segment (start 49.134 47.735) (end 49.117 47.752) (width 0.4064) (layer F.Cu) (net 7))
  (segment (start 49.134 44.323) (end 49.134 47.735) (width 0.4064) (layer F.Cu) (net 7))
  (segment (start 36.51854 52.13604) (end 36.7665 52.384) (width 0.4) (layer F.Cu) (net 10))
  (segment (start 35.7886 52.13604) (end 36.51854 52.13604) (width 0.4) (layer F.Cu) (net 10))
  (segment (start 34.70656 51.054) (end 35.7886 52.13604) (width 0.4) (layer F.Cu) (net 10))
  (segment (start 33.242 51.054) (end 34.70656 51.054) (width 0.4) (layer F.Cu) (net 10))
  (segment (start 36.07974 47.184) (end 36.7665 47.184) (width 0.4) (layer F.Cu) (net 11))
  (segment (start 35.00374 48.26) (end 36.07974 47.184) (width 0.4) (layer F.Cu) (net 11))
  (segment (start 33.242 48.26) (end 35.00374 48.26) (width 0.4) (layer F.Cu) (net 11))
  (segment (start 38.0365 49.9745) (end 38.227 49.784) (width 0.4) (layer F.Cu) (net 15))
  (segment (start 38.0365 52.384) (end 38.0365 49.9745) (width 0.4) (layer F.Cu) (net 15))
  (segment (start 37.4015 49.9745) (end 37.4015 52.384) (width 0.4) (layer F.Cu) (net 15))
  (segment (start 37.592 49.784) (end 37.4015 49.9745) (width 0.4) (layer F.Cu) (net 15))
  (segment (start 38.227 49.784) (end 37.592 49.784) (width 0.4) (layer F.Cu) (net 15))
  (segment (start 39.37 49.784) (end 38.227 49.784) (width 0.4) (layer F.Cu) (net 15))
  (segment (start 39.9415 49.2125) (end 39.37 49.784) (width 0.4) (layer F.Cu) (net 15))
  (segment (start 39.9415 47.184) (end 39.9415 49.2125) (width 0.4) (layer F.Cu) (net 15))
  (segment (start 41.282498 44.323) (end 44.084 44.323) (width 0.4) (layer F.Cu) (net 19))
  (segment (start 39.3065 46.298998) (end 41.282498 44.323) (width 0.4) (layer F.Cu) (net 19))
  (segment (start 39.3065 47.184) (end 39.3065 46.298998) (width 0.4) (layer F.Cu) (net 19))
  (segment (start 44.084 43.546) (end 44.084 44.323) (width 0.4064) (layer F.Cu) (net 19))
  (segment (start 44.577 43.053) (end 44.084 43.546) (width 0.4064) (layer F.Cu) (net 19))
  (segment (start 52.705 43.053) (end 44.577 43.053) (width 0.4064) (layer F.Cu) (net 19))
  (segment (start 54.356 44.704) (end 52.705 43.053) (width 0.4064) (layer F.Cu) (net 19))
  (segment (start 54.356 46.355) (end 54.356 44.704) (width 0.4064) (layer F.Cu) (net 19))
  (segment (start 54.356 48.768) (end 54.356 46.355) (width 0.4064) (layer F.Cu) (net 19))
  (segment (start 56.388 50.8) (end 54.356 48.768) (width 0.4064) (layer F.Cu) (net 19))
  (segment (start 56.388 52.832) (end 56.388 50.8) (width 0.4064) (layer F.Cu) (net 19))
  (segment (start 44.549 47.184) (end 45.117 47.752) (width 0.4) (layer F.Cu) (net 20))
  (segment (start 41.2115 47.184) (end 44.549 47.184) (width 0.4) (layer F.Cu) (net 20))
  (segment (start 45.117 47.752) (end 45.212 47.752) (width 0.4064) (layer F.Cu) (net 20))
  (segment (start 45.212 47.752) (end 47.498 50.038) (width 0.4064) (layer F.Cu) (net 20))
  (segment (start 53.848 51.1756) (end 53.848 52.832) (width 0.4064) (layer F.Cu) (net 20))
  (segment (start 52.7104 50.038) (end 53.848 51.1756) (width 0.4064) (layer F.Cu) (net 20))
  (segment (start 47.498 50.038) (end 52.7104 50.038) (width 0.4064) (layer F.Cu) (net 20))

  (zone (net 1) (net_name GND) (layer F.Cu) (tstamp 602A51FD) (hatch edge 0.508)
    (connect_pads (clearance 0.25))
    (min_thickness 0.25)
    (fill yes (arc_segments 32) (thermal_gap 0.508) (thermal_bridge_width 0.508))
    (polygon
      (pts
        (xy 61.3156 59.309) (xy 26.1112 59.309) (xy 26.1112 55.6768) (xy 26.1112 46.99) (xy 14.859 46.99)
        (xy 14.859 44.704) (xy 26.162 44.704) (xy 26.1112 39.9288) (xy 61.3156 39.9288)
      )
    )
    (filled_polygon
      (pts
        (xy 60.915601 48.794903) (xy 60.102511 47.981814) (xy 60.286 47.981814) (xy 60.359513 47.974574) (xy 60.4302 47.953131)
        (xy 60.495347 47.918309) (xy 60.552448 47.871448) (xy 60.599309 47.814347) (xy 60.634131 47.7492) (xy 60.655574 47.678513)
        (xy 60.662814 47.605) (xy 60.662814 45.105) (xy 60.655574 45.031487) (xy 60.634131 44.9608) (xy 60.599309 44.895653)
        (xy 60.552448 44.838552) (xy 60.495347 44.791691) (xy 60.4302 44.756869) (xy 60.359513 44.735426) (xy 60.286 44.728186)
        (xy 58.586 44.728186) (xy 58.512487 44.735426) (xy 58.4418 44.756869) (xy 58.376653 44.791691) (xy 58.32079 44.837536)
        (xy 58.274867 44.751622) (xy 58.195764 44.655236) (xy 58.099378 44.576133) (xy 57.989411 44.517354) (xy 57.87009 44.481159)
        (xy 57.746 44.468937) (xy 57.18325 44.472) (xy 57.025 44.63025) (xy 57.025 46.226) (xy 57.045 46.226)
        (xy 57.045 46.484) (xy 57.025 46.484) (xy 57.025 48.07975) (xy 57.18325 48.238) (xy 57.746 48.241063)
        (xy 57.87009 48.228841) (xy 57.989411 48.192646) (xy 58.099378 48.133867) (xy 58.195764 48.054764) (xy 58.274867 47.958378)
        (xy 58.32079 47.872464) (xy 58.376653 47.918309) (xy 58.4418 47.953131) (xy 58.512487 47.974574) (xy 58.586 47.981814)
        (xy 58.8578 47.981814) (xy 58.8578 48.104602) (xy 58.855003 48.133) (xy 58.8578 48.161397) (xy 58.866167 48.246346)
        (xy 58.899229 48.355337) (xy 58.952919 48.455784) (xy 59.025173 48.543827) (xy 59.047239 48.561936) (xy 60.000801 49.515499)
        (xy 60.000801 51.279732) (xy 59.987347 51.268691) (xy 59.9222 51.233869) (xy 59.851513 51.212426) (xy 59.778 51.205186)
        (xy 58.078 51.205186) (xy 58.004487 51.212426) (xy 57.9338 51.233869) (xy 57.868653 51.268691) (xy 57.811552 51.315552)
        (xy 57.764691 51.372653) (xy 57.729869 51.4378) (xy 57.708426 51.508487) (xy 57.701186 51.582) (xy 57.701186 54.082)
        (xy 57.708426 54.155513) (xy 57.729869 54.2262) (xy 57.764691 54.291347) (xy 57.811552 54.348448) (xy 57.868653 54.395309)
        (xy 57.9338 54.430131) (xy 58.004487 54.451574) (xy 58.078 54.458814) (xy 59.778 54.458814) (xy 59.851513 54.451574)
        (xy 59.9222 54.430131) (xy 59.987347 54.395309) (xy 60.0008 54.384268) (xy 60.0008 56.402502) (xy 59.069503 57.3338)
        (xy 58.311 57.3338) (xy 58.311 54.632) (xy 54.761 54.632) (xy 54.761 54.771676) (xy 52.2337 54.771676)
        (xy 52.2337 57.140724) (xy 54.761 57.140724) (xy 54.761 57.3338) (xy 51.8862 57.3338) (xy 51.8862 54.458814)
        (xy 52.158 54.458814) (xy 52.231513 54.451574) (xy 52.3022 54.430131) (xy 52.367347 54.395309) (xy 52.424448 54.348448)
        (xy 52.471309 54.291347) (xy 52.506131 54.2262) (xy 52.527574 54.155513) (xy 52.534814 54.082) (xy 52.534814 51.582)
        (xy 52.527574 51.508487) (xy 52.506131 51.4378) (xy 52.471309 51.372653) (xy 52.424448 51.315552) (xy 52.367347 51.268691)
        (xy 52.3022 51.233869) (xy 52.231513 51.212426) (xy 52.158 51.205186) (xy 50.458 51.205186) (xy 50.384487 51.212426)
        (xy 50.3138 51.233869) (xy 50.248653 51.268691) (xy 50.191552 51.315552) (xy 50.144691 51.372653) (xy 50.109869 51.4378)
        (xy 50.088426 51.508487) (xy 50.081186 51.582) (xy 50.081186 54.082) (xy 50.088426 54.155513) (xy 50.109869 54.2262)
        (xy 50.144691 54.291347) (xy 50.191552 54.348448) (xy 50.248653 54.395309) (xy 50.3138 54.430131) (xy 50.384487 54.451574)
        (xy 50.458 54.458814) (xy 50.7298 54.458814) (xy 50.729801 57.3338) (xy 39.2497 57.3338) (xy 39.2497 55.968)
        (xy 39.479937 55.968) (xy 39.492159 56.09209) (xy 39.528354 56.211411) (xy 39.587133 56.321378) (xy 39.666236 56.417764)
        (xy 39.762622 56.496867) (xy 39.872589 56.555646) (xy 39.99191 56.591841) (xy 40.116 56.604063) (xy 40.82875 56.601)
        (xy 40.987 56.44275) (xy 40.987 55.247) (xy 41.245 55.247) (xy 41.245 56.44275) (xy 41.40325 56.601)
        (xy 42.116 56.604063) (xy 42.24009 56.591841) (xy 42.359411 56.555646) (xy 42.469378 56.496867) (xy 42.565764 56.417764)
        (xy 42.644867 56.321378) (xy 42.703646 56.211411) (xy 42.739841 56.09209) (xy 42.752063 55.968) (xy 42.749 55.40525)
        (xy 42.59075 55.247) (xy 41.245 55.247) (xy 40.987 55.247) (xy 39.64125 55.247) (xy 39.483 55.40525)
        (xy 39.479937 55.968) (xy 39.2497 55.968) (xy 39.2497 55.082897) (xy 39.252497 55.0545) (xy 39.2465 54.993614)
        (xy 39.2465 54.268) (xy 39.479937 54.268) (xy 39.483 54.83075) (xy 39.64125 54.989) (xy 40.987 54.989)
        (xy 40.987 53.79325) (xy 41.245 53.79325) (xy 41.245 54.989) (xy 42.59075 54.989) (xy 42.749 54.83075)
        (xy 42.752063 54.268) (xy 42.739841 54.14391) (xy 42.721062 54.082) (xy 44.741937 54.082) (xy 44.754159 54.20609)
        (xy 44.790354 54.325411) (xy 44.849133 54.435378) (xy 44.928236 54.531764) (xy 45.024622 54.610867) (xy 45.134589 54.669646)
        (xy 45.25391 54.705841) (xy 45.378 54.718063) (xy 45.94075 54.715) (xy 46.099 54.55675) (xy 46.099 52.961)
        (xy 44.90325 52.961) (xy 44.745 53.11925) (xy 44.741937 54.082) (xy 42.721062 54.082) (xy 42.703646 54.024589)
        (xy 42.644867 53.914622) (xy 42.565764 53.818236) (xy 42.469378 53.739133) (xy 42.359411 53.680354) (xy 42.24009 53.644159)
        (xy 42.116 53.631937) (xy 41.40325 53.635) (xy 41.245 53.79325) (xy 40.987 53.79325) (xy 40.82875 53.635)
        (xy 40.116 53.631937) (xy 39.99191 53.644159) (xy 39.872589 53.680354) (xy 39.762622 53.739133) (xy 39.666236 53.818236)
        (xy 39.587133 53.914622) (xy 39.528354 54.024589) (xy 39.492159 54.14391) (xy 39.479937 54.268) (xy 39.2465 54.268)
        (xy 39.2465 53.002419) (xy 39.248314 52.984) (xy 39.248314 52.235) (xy 39.364686 52.235) (xy 39.364686 52.984)
        (xy 39.371926 53.057513) (xy 39.3815 53.089074) (xy 39.3815 53.45875) (xy 39.53975 53.617) (xy 39.641884 53.605488)
        (xy 39.760529 53.567134) (xy 39.869411 53.506371) (xy 39.964348 53.425533) (xy 40.015526 53.360814) (xy 40.1415 53.360814)
        (xy 40.215013 53.353574) (xy 40.259 53.34023) (xy 40.302987 53.353574) (xy 40.3765 53.360814) (xy 40.7765 53.360814)
        (xy 40.850013 53.353574) (xy 40.894 53.34023) (xy 40.937987 53.353574) (xy 41.0115 53.360814) (xy 41.4115 53.360814)
        (xy 41.485013 53.353574) (xy 41.5557 53.332131) (xy 41.558976 53.33038) (xy 41.77792 53.33038) (xy 41.802215 53.327996)
        (xy 41.82567 53.3209) (xy 41.847289 53.309365) (xy 41.866243 53.293834) (xy 41.881802 53.274903) (xy 41.893369 53.253301)
        (xy 41.9005 53.229857) (xy 41.90292 53.205473) (xy 41.904123 51.582) (xy 44.741937 51.582) (xy 44.745 52.54475)
        (xy 44.90325 52.703) (xy 46.099 52.703) (xy 46.099 51.10725) (xy 46.357 51.10725) (xy 46.357 52.703)
        (xy 46.377 52.703) (xy 46.377 52.961) (xy 46.357 52.961) (xy 46.357 54.55675) (xy 46.51525 54.715)
        (xy 47.078 54.718063) (xy 47.20209 54.705841) (xy 47.321411 54.669646) (xy 47.431378 54.610867) (xy 47.527764 54.531764)
        (xy 47.606867 54.435378) (xy 47.65279 54.349464) (xy 47.708653 54.395309) (xy 47.7738 54.430131) (xy 47.844487 54.451574)
        (xy 47.918 54.458814) (xy 49.618 54.458814) (xy 49.691513 54.451574) (xy 49.7622 54.430131) (xy 49.827347 54.395309)
        (xy 49.884448 54.348448) (xy 49.931309 54.291347) (xy 49.966131 54.2262) (xy 49.987574 54.155513) (xy 49.994814 54.082)
        (xy 49.994814 51.582) (xy 49.987574 51.508487) (xy 49.966131 51.4378) (xy 49.931309 51.372653) (xy 49.884448 51.315552)
        (xy 49.827347 51.268691) (xy 49.7622 51.233869) (xy 49.691513 51.212426) (xy 49.618 51.205186) (xy 47.918 51.205186)
        (xy 47.844487 51.212426) (xy 47.7738 51.233869) (xy 47.708653 51.268691) (xy 47.65279 51.314536) (xy 47.606867 51.228622)
        (xy 47.527764 51.132236) (xy 47.431378 51.053133) (xy 47.321411 50.994354) (xy 47.20209 50.958159) (xy 47.078 50.945937)
        (xy 46.51525 50.949) (xy 46.357 51.10725) (xy 46.099 51.10725) (xy 45.94075 50.949) (xy 45.378 50.945937)
        (xy 45.25391 50.958159) (xy 45.134589 50.994354) (xy 45.024622 51.053133) (xy 44.928236 51.132236) (xy 44.849133 51.228622)
        (xy 44.790354 51.338589) (xy 44.754159 51.45791) (xy 44.741937 51.582) (xy 41.904123 51.582) (xy 41.906959 47.759)
        (xy 43.740186 47.759) (xy 43.740186 48.602) (xy 43.747426 48.675513) (xy 43.768869 48.7462) (xy 43.803691 48.811347)
        (xy 43.850552 48.868448) (xy 43.907653 48.915309) (xy 43.9728 48.950131) (xy 44.043487 48.971574) (xy 44.117 48.978814)
        (xy 45.621117 48.978814) (xy 47.069068 50.426766) (xy 47.087173 50.448827) (xy 47.175215 50.521081) (xy 47.275662 50.574771)
        (xy 47.384653 50.607833) (xy 47.469602 50.6162) (xy 47.469609 50.6162) (xy 47.497999 50.618996) (xy 47.526389 50.6162)
        (xy 52.470903 50.6162) (xy 53.059888 51.205186) (xy 52.998 51.205186) (xy 52.924487 51.212426) (xy 52.8538 51.233869)
        (xy 52.788653 51.268691) (xy 52.731552 51.315552) (xy 52.684691 51.372653) (xy 52.649869 51.4378) (xy 52.628426 51.508487)
        (xy 52.621186 51.582) (xy 52.621186 54.082) (xy 52.628426 54.155513) (xy 52.649869 54.2262) (xy 52.684691 54.291347)
        (xy 52.731552 54.348448) (xy 52.788653 54.395309) (xy 52.8538 54.430131) (xy 52.924487 54.451574) (xy 52.998 54.458814)
        (xy 54.698 54.458814) (xy 54.771513 54.451574) (xy 54.8422 54.430131) (xy 54.907347 54.395309) (xy 54.964448 54.348448)
        (xy 55.011309 54.291347) (xy 55.046131 54.2262) (xy 55.067574 54.155513) (xy 55.074814 54.082) (xy 55.074814 51.582)
        (xy 55.067574 51.508487) (xy 55.046131 51.4378) (xy 55.011309 51.372653) (xy 54.964448 51.315552) (xy 54.907347 51.268691)
        (xy 54.8422 51.233869) (xy 54.771513 51.212426) (xy 54.698 51.205186) (xy 54.4262 51.205186) (xy 54.4262 51.203989)
        (xy 54.428996 51.175599) (xy 54.4262 51.147209) (xy 54.4262 51.147202) (xy 54.417833 51.062253) (xy 54.384771 50.953262)
        (xy 54.331081 50.852815) (xy 54.258827 50.764773) (xy 54.236767 50.746669) (xy 53.139336 49.649239) (xy 53.121227 49.627173)
        (xy 53.033185 49.554919) (xy 52.932738 49.501229) (xy 52.823747 49.468167) (xy 52.738798 49.4598) (xy 52.738797 49.4598)
        (xy 52.7104 49.457003) (xy 52.682003 49.4598) (xy 47.737498 49.4598) (xy 46.493814 48.216117) (xy 46.493814 46.902)
        (xy 46.486574 46.828487) (xy 46.465131 46.7578) (xy 46.430309 46.692653) (xy 46.383448 46.635552) (xy 46.326347 46.588691)
        (xy 46.2612 46.553869) (xy 46.190513 46.532426) (xy 46.117 46.525186) (xy 44.117 46.525186) (xy 44.043487 46.532426)
        (xy 43.9728 46.553869) (xy 43.907653 46.588691) (xy 43.882906 46.609) (xy 41.907812 46.609) (xy 41.908 46.355093)
        (xy 41.905598 46.330614) (xy 41.898485 46.307165) (xy 41.886934 46.285554) (xy 41.871388 46.266612) (xy 41.852446 46.251066)
        (xy 41.830835 46.239515) (xy 41.807386 46.232402) (xy 41.783 46.23) (xy 41.536353 46.23) (xy 41.485013 46.214426)
        (xy 41.4115 46.207186) (xy 41.0115 46.207186) (xy 40.937987 46.214426) (xy 40.894 46.22777) (xy 40.850013 46.214426)
        (xy 40.7765 46.207186) (xy 40.3765 46.207186) (xy 40.302987 46.214426) (xy 40.259 46.22777) (xy 40.215013 46.214426)
        (xy 40.20521 46.213461) (xy 41.520671 44.898) (xy 42.139877 44.898) (xy 42.160869 44.9672) (xy 42.195691 45.032347)
        (xy 42.242552 45.089448) (xy 42.299653 45.136309) (xy 42.3648 45.171131) (xy 42.435487 45.192574) (xy 42.509 45.199814)
        (xy 45.659 45.199814) (xy 45.732513 45.192574) (xy 45.8032 45.171131) (xy 45.868347 45.136309) (xy 45.925448 45.089448)
        (xy 45.972309 45.032347) (xy 46.007131 44.9672) (xy 46.028574 44.896513) (xy 46.035814 44.823) (xy 46.035814 43.823)
        (xy 46.028574 43.749487) (xy 46.007131 43.6788) (xy 45.981688 43.6312) (xy 47.236312 43.6312) (xy 47.210869 43.6788)
        (xy 47.189426 43.749487) (xy 47.182186 43.823) (xy 47.182186 44.823) (xy 47.189426 44.896513) (xy 47.210869 44.9672)
        (xy 47.245691 45.032347) (xy 47.292552 45.089448) (xy 47.349653 45.136309) (xy 47.4148 45.171131) (xy 47.485487 45.192574)
        (xy 47.559 45.199814) (xy 48.5558 45.199814) (xy 48.555801 46.525186) (xy 48.117 46.525186) (xy 48.043487 46.532426)
        (xy 47.9728 46.553869) (xy 47.907653 46.588691) (xy 47.850552 46.635552) (xy 47.803691 46.692653) (xy 47.768869 46.7578)
        (xy 47.747426 46.828487) (xy 47.740186 46.902) (xy 47.740186 48.602) (xy 47.747426 48.675513) (xy 47.768869 48.7462)
        (xy 47.803691 48.811347) (xy 47.850552 48.868448) (xy 47.907653 48.915309) (xy 47.9728 48.950131) (xy 48.043487 48.971574)
        (xy 48.117 48.978814) (xy 50.117 48.978814) (xy 50.190513 48.971574) (xy 50.2612 48.950131) (xy 50.326347 48.915309)
        (xy 50.383448 48.868448) (xy 50.430309 48.811347) (xy 50.465131 48.7462) (xy 50.486574 48.675513) (xy 50.493814 48.602)
        (xy 50.493814 46.902) (xy 50.486574 46.828487) (xy 50.465131 46.7578) (xy 50.430309 46.692653) (xy 50.383448 46.635552)
        (xy 50.326347 46.588691) (xy 50.2612 46.553869) (xy 50.190513 46.532426) (xy 50.117 46.525186) (xy 49.7122 46.525186)
        (xy 49.7122 45.199814) (xy 50.709 45.199814) (xy 50.782513 45.192574) (xy 50.8532 45.171131) (xy 50.918347 45.136309)
        (xy 50.975448 45.089448) (xy 51.022309 45.032347) (xy 51.057131 44.9672) (xy 51.078574 44.896513) (xy 51.085814 44.823)
        (xy 51.085814 43.823) (xy 51.078574 43.749487) (xy 51.057131 43.6788) (xy 51.031688 43.6312) (xy 52.465503 43.6312)
        (xy 53.562488 44.728186) (xy 53.506 44.728186) (xy 53.432487 44.735426) (xy 53.3618 44.756869) (xy 53.296653 44.791691)
        (xy 53.239552 44.838552) (xy 53.192691 44.895653) (xy 53.157869 44.9608) (xy 53.136426 45.031487) (xy 53.129186 45.105)
        (xy 53.129186 47.605) (xy 53.136426 47.678513) (xy 53.157869 47.7492) (xy 53.192691 47.814347) (xy 53.239552 47.871448)
        (xy 53.296653 47.918309) (xy 53.3618 47.953131) (xy 53.432487 47.974574) (xy 53.506 47.981814) (xy 53.7778 47.981814)
        (xy 53.7778 48.739602) (xy 53.775003 48.768) (xy 53.7778 48.796397) (xy 53.786167 48.881346) (xy 53.819229 48.990337)
        (xy 53.872919 49.090784) (xy 53.945173 49.178827) (xy 53.967239 49.196936) (xy 55.809801 51.039499) (xy 55.809801 51.205186)
        (xy 55.538 51.205186) (xy 55.464487 51.212426) (xy 55.3938 51.233869) (xy 55.328653 51.268691) (xy 55.271552 51.315552)
        (xy 55.224691 51.372653) (xy 55.189869 51.4378) (xy 55.168426 51.508487) (xy 55.161186 51.582) (xy 55.161186 54.082)
        (xy 55.168426 54.155513) (xy 55.189869 54.2262) (xy 55.224691 54.291347) (xy 55.271552 54.348448) (xy 55.328653 54.395309)
        (xy 55.3938 54.430131) (xy 55.464487 54.451574) (xy 55.538 54.458814) (xy 57.238 54.458814) (xy 57.311513 54.451574)
        (xy 57.3822 54.430131) (xy 57.447347 54.395309) (xy 57.504448 54.348448) (xy 57.551309 54.291347) (xy 57.586131 54.2262)
        (xy 57.607574 54.155513) (xy 57.614814 54.082) (xy 57.614814 51.582) (xy 57.607574 51.508487) (xy 57.586131 51.4378)
        (xy 57.551309 51.372653) (xy 57.504448 51.315552) (xy 57.447347 51.268691) (xy 57.3822 51.233869) (xy 57.311513 51.212426)
        (xy 57.238 51.205186) (xy 56.9662 51.205186) (xy 56.9662 50.828397) (xy 56.968997 50.8) (xy 56.957833 50.686653)
        (xy 56.924771 50.577662) (xy 56.871081 50.477215) (xy 56.867624 50.473003) (xy 56.798827 50.389173) (xy 56.776766 50.371068)
        (xy 54.9342 48.528503) (xy 54.9342 47.981814) (xy 55.206 47.981814) (xy 55.279513 47.974574) (xy 55.3502 47.953131)
        (xy 55.415347 47.918309) (xy 55.47121 47.872464) (xy 55.517133 47.958378) (xy 55.596236 48.054764) (xy 55.692622 48.133867)
        (xy 55.802589 48.192646) (xy 55.92191 48.228841) (xy 56.046 48.241063) (xy 56.60875 48.238) (xy 56.767 48.07975)
        (xy 56.767 46.484) (xy 56.747 46.484) (xy 56.747 46.226) (xy 56.767 46.226) (xy 56.767 44.63025)
        (xy 56.60875 44.472) (xy 56.046 44.468937) (xy 55.92191 44.481159) (xy 55.802589 44.517354) (xy 55.692622 44.576133)
        (xy 55.596236 44.655236) (xy 55.517133 44.751622) (xy 55.47121 44.837536) (xy 55.415347 44.791691) (xy 55.3502 44.756869)
        (xy 55.279513 44.735426) (xy 55.206 44.728186) (xy 54.934615 44.728186) (xy 54.936997 44.704) (xy 54.925833 44.590653)
        (xy 54.892771 44.481662) (xy 54.839081 44.381215) (xy 54.784929 44.315231) (xy 54.766827 44.293173) (xy 54.744766 44.275068)
        (xy 53.133936 42.664239) (xy 53.115827 42.642173) (xy 53.027785 42.569919) (xy 52.927338 42.516229) (xy 52.818347 42.483167)
        (xy 52.733398 42.4748) (xy 52.733397 42.4748) (xy 52.705 42.472003) (xy 52.676603 42.4748) (xy 51.031688 42.4748)
        (xy 51.057131 42.4272) (xy 51.078574 42.356513) (xy 51.085814 42.283) (xy 51.085814 41.283) (xy 51.078574 41.209487)
        (xy 51.057131 41.1388) (xy 51.022309 41.073653) (xy 50.975448 41.016552) (xy 50.918347 40.969691) (xy 50.8532 40.934869)
        (xy 50.782513 40.913426) (xy 50.709 40.906186) (xy 47.559 40.906186) (xy 47.485487 40.913426) (xy 47.4148 40.934869)
        (xy 47.349653 40.969691) (xy 47.292552 41.016552) (xy 47.245691 41.073653) (xy 47.210869 41.1388) (xy 47.189426 41.209487)
        (xy 47.182186 41.283) (xy 47.182186 42.283) (xy 47.189426 42.356513) (xy 47.210869 42.4272) (xy 47.236312 42.4748)
        (xy 45.981688 42.4748) (xy 46.007131 42.4272) (xy 46.028574 42.356513) (xy 46.035814 42.283) (xy 46.035814 41.283)
        (xy 46.028574 41.209487) (xy 46.007131 41.1388) (xy 45.972309 41.073653) (xy 45.925448 41.016552) (xy 45.868347 40.969691)
        (xy 45.8032 40.934869) (xy 45.732513 40.913426) (xy 45.659 40.906186) (xy 42.509 40.906186) (xy 42.435487 40.913426)
        (xy 42.3648 40.934869) (xy 42.299653 40.969691) (xy 42.242552 41.016552) (xy 42.195691 41.073653) (xy 42.160869 41.1388)
        (xy 42.139426 41.209487) (xy 42.132186 41.283) (xy 42.132186 42.283) (xy 42.139426 42.356513) (xy 42.160869 42.4272)
        (xy 42.195691 42.492347) (xy 42.242552 42.549448) (xy 42.299653 42.596309) (xy 42.3648 42.631131) (xy 42.435487 42.652574)
        (xy 42.509 42.659814) (xy 44.151695 42.659814) (xy 44.148068 42.664234) (xy 43.695239 43.117064) (xy 43.673173 43.135173)
        (xy 43.64759 43.166347) (xy 43.600919 43.223216) (xy 43.547229 43.323663) (xy 43.514167 43.432654) (xy 43.512834 43.446186)
        (xy 42.509 43.446186) (xy 42.435487 43.453426) (xy 42.3648 43.474869) (xy 42.299653 43.509691) (xy 42.242552 43.556552)
        (xy 42.195691 43.613653) (xy 42.160869 43.6788) (xy 42.139877 43.748) (xy 41.31074 43.748) (xy 41.282497 43.745218)
        (xy 41.254254 43.748) (xy 41.254252 43.748) (xy 41.169778 43.75632) (xy 41.071181 43.786229) (xy 41.06139 43.789199)
        (xy 40.961499 43.842592) (xy 40.929584 43.868784) (xy 40.873944 43.914446) (xy 40.855937 43.936388) (xy 38.919889 45.872437)
        (xy 38.897947 45.890444) (xy 38.879941 45.912385) (xy 38.826092 45.978) (xy 38.772699 46.077891) (xy 38.770452 46.085298)
        (xy 38.7465 46.10925) (xy 38.7465 46.16426) (xy 38.739821 46.186278) (xy 38.731889 46.266808) (xy 38.728718 46.298998)
        (xy 38.7315 46.327241) (xy 38.7315 46.565581) (xy 38.729686 46.584) (xy 38.729686 47.333) (xy 38.613314 47.333)
        (xy 38.613314 46.584) (xy 38.606074 46.510487) (xy 38.5965 46.478926) (xy 38.5965 46.10925) (xy 38.43825 45.951)
        (xy 38.336116 45.962512) (xy 38.217471 46.000866) (xy 38.108589 46.061629) (xy 38.013652 46.142467) (xy 37.962474 46.207186)
        (xy 37.8365 46.207186) (xy 37.762987 46.214426) (xy 37.719 46.22777) (xy 37.675013 46.214426) (xy 37.6015 46.207186)
        (xy 37.2015 46.207186) (xy 37.127987 46.214426) (xy 37.084 46.22777) (xy 37.040013 46.214426) (xy 36.9665 46.207186)
        (xy 36.5665 46.207186) (xy 36.492987 46.214426) (xy 36.441647 46.23) (xy 34.877595 46.23) (xy 34.875 45.75325)
        (xy 34.71675 45.595) (xy 33.371 45.595) (xy 33.371 46.79075) (xy 33.52925 46.949) (xy 34.242 46.952063)
        (xy 34.36609 46.939841) (xy 34.420262 46.923408) (xy 34.42061 47.080262) (xy 34.3862 47.061869) (xy 34.315513 47.040426)
        (xy 34.242 47.033186) (xy 32.242 47.033186) (xy 32.168487 47.040426) (xy 32.0978 47.061869) (xy 32.032653 47.096691)
        (xy 31.975552 47.143552) (xy 31.928691 47.200653) (xy 31.893869 47.2658) (xy 31.872426 47.336487) (xy 31.865186 47.41)
        (xy 31.865186 49.11) (xy 31.872426 49.183513) (xy 31.893869 49.2542) (xy 31.928691 49.319347) (xy 31.975552 49.376448)
        (xy 32.032653 49.423309) (xy 32.0978 49.458131) (xy 32.168487 49.479574) (xy 32.242 49.486814) (xy 34.242 49.486814)
        (xy 34.315513 49.479574) (xy 34.3862 49.458131) (xy 34.425846 49.43694) (xy 34.426824 49.877583) (xy 34.3862 49.855869)
        (xy 34.315513 49.834426) (xy 34.242 49.827186) (xy 32.242 49.827186) (xy 32.168487 49.834426) (xy 32.0978 49.855869)
        (xy 32.032653 49.890691) (xy 31.975552 49.937552) (xy 31.928691 49.994653) (xy 31.893869 50.0598) (xy 31.872426 50.130487)
        (xy 31.865186 50.204) (xy 31.865186 51.904) (xy 31.872426 51.977513) (xy 31.893869 52.0482) (xy 31.928691 52.113347)
        (xy 31.975552 52.170448) (xy 32.032653 52.217309) (xy 32.0978 52.252131) (xy 32.168487 52.273574) (xy 32.242 52.280814)
        (xy 34.242 52.280814) (xy 34.315513 52.273574) (xy 34.3862 52.252131) (xy 34.432045 52.227626) (xy 34.432415 52.394278)
        (xy 34.36609 52.374159) (xy 34.242 52.361937) (xy 33.52925 52.365) (xy 33.371 52.52325) (xy 33.371 53.719)
        (xy 34.71675 53.719) (xy 34.875 53.56075) (xy 34.876199 53.34054) (xy 36.45002 53.34054) (xy 36.492987 53.353574)
        (xy 36.5665 53.360814) (xy 36.9665 53.360814) (xy 37.040013 53.353574) (xy 37.08298 53.34054) (xy 37.08502 53.34054)
        (xy 37.127987 53.353574) (xy 37.2015 53.360814) (xy 37.6015 53.360814) (xy 37.675013 53.353574) (xy 37.71798 53.34054)
        (xy 37.72002 53.34054) (xy 37.762987 53.353574) (xy 37.8365 53.360814) (xy 38.0965 53.360814) (xy 38.096501 53.891186)
        (xy 36.116 53.891186) (xy 36.042487 53.898426) (xy 35.9718 53.919869) (xy 35.906653 53.954691) (xy 35.849552 54.001552)
        (xy 35.802691 54.058653) (xy 35.767869 54.1238) (xy 35.746426 54.194487) (xy 35.739186 54.268) (xy 35.739186 55.968)
        (xy 35.746426 56.041513) (xy 35.767869 56.1122) (xy 35.802691 56.177347) (xy 35.849552 56.234448) (xy 35.906653 56.281309)
        (xy 35.9718 56.316131) (xy 36.042487 56.337574) (xy 36.116 56.344814) (xy 38.0933 56.344814) (xy 38.093301 57.3338)
        (xy 29.703498 57.3338) (xy 26.2362 53.866503) (xy 26.2362 51.5352) (xy 27.865186 51.5352) (xy 27.865186 51.904)
        (xy 27.872426 51.977513) (xy 27.893869 52.0482) (xy 27.928691 52.113347) (xy 27.975552 52.170448) (xy 28.032653 52.217309)
        (xy 28.0978 52.252131) (xy 28.168487 52.273574) (xy 28.242 52.280814) (xy 28.6638 52.280814) (xy 28.663801 52.621186)
        (xy 28.242 52.621186) (xy 28.168487 52.628426) (xy 28.0978 52.649869) (xy 28.032653 52.684691) (xy 27.975552 52.731552)
        (xy 27.928691 52.788653) (xy 27.893869 52.8538) (xy 27.872426 52.924487) (xy 27.865186 52.998) (xy 27.865186 54.698)
        (xy 27.872426 54.771513) (xy 27.893869 54.8422) (xy 27.928691 54.907347) (xy 27.975552 54.964448) (xy 28.032653 55.011309)
        (xy 28.0978 55.046131) (xy 28.168487 55.067574) (xy 28.242 55.074814) (xy 30.242 55.074814) (xy 30.315513 55.067574)
        (xy 30.3862 55.046131) (xy 30.451347 55.011309) (xy 30.508448 54.964448) (xy 30.555309 54.907347) (xy 30.590131 54.8422)
        (xy 30.611574 54.771513) (xy 30.618814 54.698) (xy 31.605937 54.698) (xy 31.618159 54.82209) (xy 31.654354 54.941411)
        (xy 31.713133 55.051378) (xy 31.792236 55.147764) (xy 31.888622 55.226867) (xy 31.998589 55.285646) (xy 32.11791 55.321841)
        (xy 32.242 55.334063) (xy 32.95475 55.331) (xy 33.113 55.17275) (xy 33.113 53.977) (xy 33.371 53.977)
        (xy 33.371 55.17275) (xy 33.52925 55.331) (xy 34.242 55.334063) (xy 34.36609 55.321841) (xy 34.485411 55.285646)
        (xy 34.595378 55.226867) (xy 34.691764 55.147764) (xy 34.770867 55.051378) (xy 34.829646 54.941411) (xy 34.865841 54.82209)
        (xy 34.878063 54.698) (xy 34.875 54.13525) (xy 34.71675 53.977) (xy 33.371 53.977) (xy 33.113 53.977)
        (xy 31.76725 53.977) (xy 31.609 54.13525) (xy 31.605937 54.698) (xy 30.618814 54.698) (xy 30.618814 52.998)
        (xy 31.605937 52.998) (xy 31.609 53.56075) (xy 31.76725 53.719) (xy 33.113 53.719) (xy 33.113 52.52325)
        (xy 32.95475 52.365) (xy 32.242 52.361937) (xy 32.11791 52.374159) (xy 31.998589 52.410354) (xy 31.888622 52.469133)
        (xy 31.792236 52.548236) (xy 31.713133 52.644622) (xy 31.654354 52.754589) (xy 31.618159 52.87391) (xy 31.605937 52.998)
        (xy 30.618814 52.998) (xy 30.611574 52.924487) (xy 30.590131 52.8538) (xy 30.555309 52.788653) (xy 30.508448 52.731552)
        (xy 30.451347 52.684691) (xy 30.3862 52.649869) (xy 30.315513 52.628426) (xy 30.242 52.621186) (xy 29.8202 52.621186)
        (xy 29.8202 52.280814) (xy 30.242 52.280814) (xy 30.315513 52.273574) (xy 30.3862 52.252131) (xy 30.451347 52.217309)
        (xy 30.508448 52.170448) (xy 30.555309 52.113347) (xy 30.590131 52.0482) (xy 30.611574 51.977513) (xy 30.618814 51.904)
        (xy 30.618814 50.204) (xy 30.611574 50.130487) (xy 30.590131 50.0598) (xy 30.555309 49.994653) (xy 30.508448 49.937552)
        (xy 30.451347 49.890691) (xy 30.3862 49.855869) (xy 30.315513 49.834426) (xy 30.242 49.827186) (xy 28.242 49.827186)
        (xy 28.168487 49.834426) (xy 28.0978 49.855869) (xy 28.032653 49.890691) (xy 27.975552 49.937552) (xy 27.928691 49.994653)
        (xy 27.893869 50.0598) (xy 27.872426 50.130487) (xy 27.865186 50.204) (xy 27.865186 50.3788) (xy 26.2362 50.3788)
        (xy 26.2362 48.9352) (xy 27.865186 48.9352) (xy 27.865186 49.11) (xy 27.872426 49.183513) (xy 27.893869 49.2542)
        (xy 27.928691 49.319347) (xy 27.975552 49.376448) (xy 28.032653 49.423309) (xy 28.0978 49.458131) (xy 28.168487 49.479574)
        (xy 28.242 49.486814) (xy 30.242 49.486814) (xy 30.315513 49.479574) (xy 30.3862 49.458131) (xy 30.451347 49.423309)
        (xy 30.508448 49.376448) (xy 30.555309 49.319347) (xy 30.590131 49.2542) (xy 30.611574 49.183513) (xy 30.618814 49.11)
        (xy 30.618814 47.41) (xy 30.611574 47.336487) (xy 30.590131 47.2658) (xy 30.555309 47.200653) (xy 30.508448 47.143552)
        (xy 30.451347 47.096691) (xy 30.3862 47.061869) (xy 30.315513 47.040426) (xy 30.242 47.033186) (xy 29.8202 47.033186)
        (xy 29.8202 46.692814) (xy 30.242 46.692814) (xy 30.315513 46.685574) (xy 30.3862 46.664131) (xy 30.451347 46.629309)
        (xy 30.508448 46.582448) (xy 30.555309 46.525347) (xy 30.590131 46.4602) (xy 30.611574 46.389513) (xy 30.618814 46.316)
        (xy 31.605937 46.316) (xy 31.618159 46.44009) (xy 31.654354 46.559411) (xy 31.713133 46.669378) (xy 31.792236 46.765764)
        (xy 31.888622 46.844867) (xy 31.998589 46.903646) (xy 32.11791 46.939841) (xy 32.242 46.952063) (xy 32.95475 46.949)
        (xy 33.113 46.79075) (xy 33.113 45.595) (xy 31.76725 45.595) (xy 31.609 45.75325) (xy 31.605937 46.316)
        (xy 30.618814 46.316) (xy 30.618814 44.616) (xy 31.605937 44.616) (xy 31.609 45.17875) (xy 31.76725 45.337)
        (xy 33.113 45.337) (xy 33.113 44.14125) (xy 33.371 44.14125) (xy 33.371 45.337) (xy 34.71675 45.337)
        (xy 34.875 45.17875) (xy 34.878063 44.616) (xy 34.865841 44.49191) (xy 34.829646 44.372589) (xy 34.770867 44.262622)
        (xy 34.691764 44.166236) (xy 34.595378 44.087133) (xy 34.485411 44.028354) (xy 34.36609 43.992159) (xy 34.242 43.979937)
        (xy 33.52925 43.983) (xy 33.371 44.14125) (xy 33.113 44.14125) (xy 32.95475 43.983) (xy 32.242 43.979937)
        (xy 32.11791 43.992159) (xy 31.998589 44.028354) (xy 31.888622 44.087133) (xy 31.792236 44.166236) (xy 31.713133 44.262622)
        (xy 31.654354 44.372589) (xy 31.618159 44.49191) (xy 31.605937 44.616) (xy 30.618814 44.616) (xy 30.611574 44.542487)
        (xy 30.590131 44.4718) (xy 30.555309 44.406653) (xy 30.508448 44.349552) (xy 30.451347 44.302691) (xy 30.3862 44.267869)
        (xy 30.315513 44.246426) (xy 30.242 44.239186) (xy 28.242 44.239186) (xy 28.168487 44.246426) (xy 28.0978 44.267869)
        (xy 28.032653 44.302691) (xy 27.975552 44.349552) (xy 27.928691 44.406653) (xy 27.893869 44.4718) (xy 27.872426 44.542487)
        (xy 27.865186 44.616) (xy 27.865186 46.316) (xy 27.872426 46.389513) (xy 27.893869 46.4602) (xy 27.928691 46.525347)
        (xy 27.975552 46.582448) (xy 28.032653 46.629309) (xy 28.0978 46.664131) (xy 28.168487 46.685574) (xy 28.242 46.692814)
        (xy 28.6638 46.692814) (xy 28.663801 47.033186) (xy 28.242 47.033186) (xy 28.168487 47.040426) (xy 28.0978 47.061869)
        (xy 28.032653 47.096691) (xy 27.975552 47.143552) (xy 27.928691 47.200653) (xy 27.893869 47.2658) (xy 27.872426 47.336487)
        (xy 27.865186 47.41) (xy 27.865186 47.7788) (xy 26.2362 47.7788) (xy 26.2362 46.99) (xy 26.233798 46.965614)
        (xy 26.226685 46.942165) (xy 26.215134 46.920554) (xy 26.199588 46.901612) (xy 26.180646 46.886066) (xy 26.159035 46.874515)
        (xy 26.135586 46.867402) (xy 26.1112 46.865) (xy 23.626365 46.865) (xy 23.633063 46.797) (xy 23.63 46.13425)
        (xy 23.47175 45.976) (xy 19.126 45.976) (xy 19.126 45.996) (xy 18.868 45.996) (xy 18.868 45.976)
        (xy 18.848 45.976) (xy 18.848 45.718) (xy 18.868 45.718) (xy 18.868 45.698) (xy 19.126 45.698)
        (xy 19.126 45.718) (xy 23.47175 45.718) (xy 23.63 45.55975) (xy 23.633063 44.897) (xy 23.626365 44.829)
        (xy 26.162 44.829) (xy 26.186386 44.826598) (xy 26.209835 44.819485) (xy 26.231446 44.807934) (xy 26.250388 44.792388)
        (xy 26.265934 44.773446) (xy 26.277485 44.751835) (xy 26.284598 44.728386) (xy 26.286993 44.70267) (xy 26.279257 43.975527)
        (xy 26.334503 43.945997) (xy 26.395411 43.896011) (xy 26.445397 43.835103) (xy 26.48254 43.765614) (xy 26.505412 43.690214)
        (xy 26.5112 43.631447) (xy 26.513135 43.6118) (xy 26.5112 43.592153) (xy 26.5112 40.3288) (xy 60.915601 40.3288)
      )
    )
  )
  (zone (net 0) (net_name "") (layer Eco1.User) (tstamp 602A51FA) (hatch edge 0.508)
    (connect_pads (clearance 0.508))
    (min_thickness 0.05)
    (fill yes (arc_segments 32) (thermal_gap 0.508) (thermal_bridge_width 0.508))
    (polygon
      (pts
        (xy 62.484 60.706) (xy 12.446 60.706) (xy 12.446 38.608) (xy 62.484 38.608)
      )
    )
    (filled_polygon
      (pts
        (xy 61.3156 59.309) (xy 26.1112 59.309) (xy 26.1112 55.7022) (xy 14.097 55.7022) (xy 14.097 43.6118)
        (xy 26.1112 43.6118) (xy 26.1112 39.9288) (xy 61.3156 39.9288)
      )
    )
  )
  (zone (net 0) (net_name "") (layer F.Cu) (tstamp 0) (hatch edge 0.508)
    (connect_pads (clearance 0.508))
    (min_thickness 0.254)
    (keepout (tracks allowed) (vias allowed) (copperpour not_allowed))
    (fill (arc_segments 32) (thermal_gap 0.508) (thermal_bridge_width 0.508))
    (polygon
      (pts
        (xy 41.77792 53.20538) (xy 39.61892 53.20538) (xy 39.624 51.562) (xy 38.862 51.562) (xy 38.87724 53.21554)
        (xy 34.55924 53.21554) (xy 34.544 46.355) (xy 38.354 46.355) (xy 38.354 48.006) (xy 38.989 48.006)
        (xy 38.989 46.355) (xy 41.783 46.355)
      )
    )
  )
)
