(kicad_pcb (version 20171130) (host pcbnew "(5.1.9)-1")

  (general
    (thickness 1.6)
    (drawings 4)
    (tracks 30)
    (zones 0)
    (modules 4)
    (nets 11)
  )

  (page A4)
  (layers
    (0 F.Cu signal)
    (31 B.Cu signal)
    (32 B.Adhes user)
    (33 F.Adhes user)
    (34 B.Paste user)
    (35 F.Paste user)
    (36 B.SilkS user)
    (37 F.SilkS user)
    (38 B.Mask user)
    (39 F.Mask user)
    (40 Dwgs.User user)
    (41 Cmts.User user)
    (42 Eco1.User user)
    (43 Eco2.User user)
    (44 Edge.Cuts user)
    (45 Margin user)
    (46 B.CrtYd user)
    (47 F.CrtYd user)
    (48 B.Fab user)
    (49 F.Fab user)
  )

  (setup
    (last_trace_width 0.4064)
    (user_trace_width 0.4064)
    (trace_clearance 0.2)
    (zone_clearance 0.25)
    (zone_45_only no)
    (trace_min 0.2)
    (via_size 0.8)
    (via_drill 0.4)
    (via_min_size 0.4)
    (via_min_drill 0.3)
    (uvia_size 0.3)
    (uvia_drill 0.1)
    (uvias_allowed no)
    (uvia_min_size 0.2)
    (uvia_min_drill 0.1)
    (edge_width 0.05)
    (segment_width 0.2)
    (pcb_text_width 0.3)
    (pcb_text_size 1.5 1.5)
    (mod_edge_width 0.12)
    (mod_text_size 1 1)
    (mod_text_width 0.15)
    (pad_size 1.524 1.524)
    (pad_drill 0.762)
    (pad_to_mask_clearance 0)
    (aux_axis_origin 0 0)
    (visible_elements FFFFFF7F)
    (pcbplotparams
      (layerselection 0x010fc_ffffffff)
      (usegerberextensions false)
      (usegerberattributes true)
      (usegerberadvancedattributes true)
      (creategerberjobfile true)
      (excludeedgelayer true)
      (linewidth 0.100000)
      (plotframeref false)
      (viasonmask false)
      (mode 1)
      (useauxorigin false)
      (hpglpennumber 1)
      (hpglpenspeed 20)
      (hpglpendiameter 15.000000)
      (psnegative false)
      (psa4output false)
      (plotreference true)
      (plotvalue true)
      (plotinvisibletext false)
      (padsonsilk false)
      (subtractmaskfromsilk false)
      (outputformat 1)
      (mirror false)
      (drillshape 1)
      (scaleselection 1)
      (outputdirectory ""))
  )

  (net 0 "")
  (net 1 VCC)
  (net 2 GND)
  (net 3 "Net-(J2-Pad6)")
  (net 4 "Net-(J2-Pad5)")
  (net 5 "Net-(J2-Pad4)")
  (net 6 "Net-(J2-Pad2)")
  (net 7 "Net-(U1-Pad2)")
  (net 8 "Net-(U1-Pad3)")
  (net 9 "Net-(U1-Pad7)")
  (net 10 "Net-(J1-Pad3)")

  (net_class Default "This is the default net class."
    (clearance 0.2)
    (trace_width 0.25)
    (via_dia 0.8)
    (via_drill 0.4)
    (uvia_dia 0.3)
    (uvia_drill 0.1)
    (add_net GND)
    (add_net "Net-(J1-Pad3)")
    (add_net "Net-(J2-Pad2)")
    (add_net "Net-(J2-Pad4)")
    (add_net "Net-(J2-Pad5)")
    (add_net "Net-(J2-Pad6)")
    (add_net "Net-(U1-Pad2)")
    (add_net "Net-(U1-Pad3)")
    (add_net "Net-(U1-Pad7)")
    (add_net VCC)
  )

  (module fab:SOIC-8_3.9x4.9mm_P1.27mm (layer F.Cu) (tedit 6002FE9A) (tstamp 602A7C41)
    (at 37.592 41.91)
    (tags "SOIC 1.27")
    (path /602A73D2)
    (attr smd)
    (fp_text reference U1 (at 0 -3.5) (layer F.SilkS)
      (effects (font (size 1 1) (thickness 0.15)))
    )
    (fp_text value Microcontroller_ATtiny412_SSFR (at 0 3.683) (layer F.Fab)
      (effects (font (size 1 1) (thickness 0.15)))
    )
    (fp_text user %R (at 0 0) (layer F.Fab)
      (effects (font (size 0.9 0.9) (thickness 0.135)))
    )
    (fp_line (start -3.9 2.75) (end -3.9 -2.8) (layer B.CrtYd) (width 0.05))
    (fp_line (start 3.95 2.75) (end -3.9 2.75) (layer B.CrtYd) (width 0.05))
    (fp_line (start 3.95 -2.8) (end 3.95 2.75) (layer B.CrtYd) (width 0.05))
    (fp_line (start -3.9 -2.8) (end 3.95 -2.8) (layer B.CrtYd) (width 0.05))
    (fp_line (start -1.95 -2.45) (end -1.95 2.45) (layer F.Fab) (width 0.1))
    (fp_line (start 1.95 -2.45) (end 1.95 2.45) (layer F.Fab) (width 0.1))
    (fp_line (start -1.95 2.45) (end 1.95 2.45) (layer F.Fab) (width 0.1))
    (fp_line (start -1.95 -2.45) (end 1.95 -2.45) (layer F.Fab) (width 0.1))
    (fp_line (start -2.075 2.575) (end 2.075 2.575) (layer F.SilkS) (width 0.15))
    (fp_line (start -3.69 -2.575) (end 2.075 -2.575) (layer F.SilkS) (width 0.15))
    (fp_circle (center -2.87 -3.23) (end -2.67 -3.23) (layer F.SilkS) (width 0.12))
    (pad 1 smd rect (at -2.8 -1.905) (size 1.8 0.7) (layers F.Cu F.Paste F.Mask)
      (net 1 VCC))
    (pad 2 smd rect (at -2.8 -0.635) (size 1.8 0.7) (layers F.Cu F.Paste F.Mask)
      (net 7 "Net-(U1-Pad2)"))
    (pad 3 smd rect (at -2.8 0.635) (size 1.8 0.7) (layers F.Cu F.Paste F.Mask)
      (net 8 "Net-(U1-Pad3)"))
    (pad 4 smd rect (at -2.8 1.905) (size 1.8 0.7) (layers F.Cu F.Paste F.Mask)
      (net 4 "Net-(J2-Pad5)"))
    (pad 5 smd rect (at 2.8 1.905) (size 1.8 0.7) (layers F.Cu F.Paste F.Mask)
      (net 5 "Net-(J2-Pad4)"))
    (pad 6 smd rect (at 2.8 0.635) (size 1.8 0.7) (layers F.Cu F.Paste F.Mask)
      (net 10 "Net-(J1-Pad3)"))
    (pad 7 smd rect (at 2.8 -0.635) (size 1.8 0.7) (layers F.Cu F.Paste F.Mask)
      (net 9 "Net-(U1-Pad7)"))
    (pad 8 smd rect (at 2.8 -1.905) (size 1.8 0.7) (layers F.Cu F.Paste F.Mask)
      (net 2 GND))
    (model ${FAB}/fab.3dshapes/SOIC-8_3.9x4.9mm_P1.27mm.step
      (at (xyz 0 0 0))
      (scale (xyz 1 1 1))
      (rotate (xyz 0 0 0))
    )
  )

  (module fab:Header_SMD_FTDI_01x06_P2.54mm_Horizontal_Male (layer F.Cu) (tedit 5FFD952E) (tstamp 602A7C29)
    (at 43.688 30.226)
    (descr https://s3.amazonaws.com/catalogspreads-pdf/PAGE112-113%20.100%20MALE%20HDR.pdf)
    (tags "horizontal pin header SMD 2.54mm")
    (path /602ABC9B)
    (attr smd)
    (fp_text reference J2 (at -1.524 -2.54 180) (layer F.SilkS)
      (effects (font (size 1 1) (thickness 0.15)) (justify left))
    )
    (fp_text value Conn_FTDI_01x06_Male (at 2.286 15.621) (layer F.Fab)
      (effects (font (size 1 1) (thickness 0.15)))
    )
    (fp_text user RTS (at -1.905 12.7) (layer F.SilkS)
      (effects (font (size 1 1) (thickness 0.15)) (justify right))
    )
    (fp_text user RX (at -1.905 10.16) (layer F.SilkS)
      (effects (font (size 1 1) (thickness 0.15)) (justify right))
    )
    (fp_text user TX (at -1.905 7.62) (layer F.SilkS)
      (effects (font (size 1 1) (thickness 0.15)) (justify right))
    )
    (fp_text user VCC (at -1.905 5.08) (layer F.SilkS)
      (effects (font (size 1 1) (thickness 0.15)) (justify right))
    )
    (fp_text user CTS (at -1.905 2.54) (layer F.SilkS)
      (effects (font (size 1 1) (thickness 0.15)) (justify right))
    )
    (fp_text user GND (at -1.905 0) (layer F.SilkS)
      (effects (font (size 1 1) (thickness 0.15)) (justify right))
    )
    (fp_text user %R (at 2.6 6.1 90) (layer F.Fab)
      (effects (font (size 1 1) (thickness 0.15)))
    )
    (fp_line (start -0.635 12.446) (end -0.635 12.954) (layer F.Fab) (width 0.1))
    (fp_line (start -0.635 9.906) (end -0.635 10.414) (layer F.Fab) (width 0.1))
    (fp_line (start -0.635 7.366) (end -0.635 7.874) (layer F.Fab) (width 0.1))
    (fp_line (start -0.635 4.826) (end -0.635 5.334) (layer F.Fab) (width 0.1))
    (fp_line (start -0.635 2.286) (end -0.635 2.794) (layer F.Fab) (width 0.1))
    (fp_line (start -0.635 -0.254) (end -0.635 0.254) (layer F.Fab) (width 0.1))
    (fp_line (start 3.81 12.954) (end 1.27 12.954) (layer F.SilkS) (width 0.12))
    (fp_line (start 3.81 12.446) (end 1.27 12.446) (layer F.SilkS) (width 0.12))
    (fp_line (start 3.81 10.414) (end 1.27 10.414) (layer F.SilkS) (width 0.12))
    (fp_line (start 3.81 9.906) (end 1.27 9.906) (layer F.SilkS) (width 0.12))
    (fp_line (start 3.81 7.874) (end 1.27 7.874) (layer F.SilkS) (width 0.12))
    (fp_line (start 3.81 7.366) (end 1.27 7.366) (layer F.SilkS) (width 0.12))
    (fp_line (start 3.81 5.334) (end 1.27 5.334) (layer F.SilkS) (width 0.12))
    (fp_line (start 3.81 4.826) (end 1.27 4.826) (layer F.SilkS) (width 0.12))
    (fp_line (start 3.81 2.794) (end 1.27 2.794) (layer F.SilkS) (width 0.12))
    (fp_line (start 3.81 2.286) (end 1.27 2.286) (layer F.SilkS) (width 0.12))
    (fp_line (start 3.81 0.254) (end 1.27 0.254) (layer F.SilkS) (width 0.12))
    (fp_line (start 3.81 -0.254) (end 1.27 -0.254) (layer F.SilkS) (width 0.12))
    (fp_line (start 3.81 13.97) (end 3.81 -1.27) (layer F.SilkS) (width 0.12))
    (fp_line (start 6.35 13.97) (end 3.81 13.97) (layer F.SilkS) (width 0.12))
    (fp_line (start 6.35 -1.27) (end 6.35 13.97) (layer F.SilkS) (width 0.12))
    (fp_line (start 3.81 -1.27) (end 6.35 -1.27) (layer F.SilkS) (width 0.12))
    (fp_line (start 3.81 12.7) (end -0.635 12.7) (layer F.Fab) (width 0.1))
    (fp_line (start 3.81 10.16) (end -0.635 10.16) (layer F.Fab) (width 0.1))
    (fp_line (start 3.81 7.62) (end -0.635 7.62) (layer F.Fab) (width 0.1))
    (fp_line (start 3.81 5.08) (end -0.635 5.08) (layer F.Fab) (width 0.1))
    (fp_line (start 3.81 2.54) (end -0.635 2.54) (layer F.Fab) (width 0.1))
    (fp_line (start 3.81 0) (end -0.635 0) (layer F.Fab) (width 0.1))
    (fp_line (start 6.34 -1.27) (end 6.35 13.97) (layer F.Fab) (width 0.1))
    (fp_line (start 3.8 13.97) (end 6.35 13.97) (layer F.Fab) (width 0.1))
    (fp_line (start 3.8 -1.27) (end 6.34 -1.27) (layer F.Fab) (width 0.1))
    (fp_line (start 3.8 13.97) (end 3.8 -1.27) (layer F.Fab) (width 0.1))
    (fp_line (start -1.27 -1.27) (end 0 -1.27) (layer F.SilkS) (width 0.12))
    (fp_line (start -1.8 -1.8) (end -1.8 14.5) (layer F.CrtYd) (width 0.05))
    (fp_line (start -1.8 14.5) (end 6.4 14.5) (layer F.CrtYd) (width 0.05))
    (fp_line (start 6.4 14.5) (end 6.4 -1.8) (layer F.CrtYd) (width 0.05))
    (fp_line (start 6.4 -1.8) (end -1.8 -1.8) (layer F.CrtYd) (width 0.05))
    (pad 6 smd rect (at 0 12.7) (size 2.5 1.7) (layers F.Cu F.Paste F.Mask)
      (net 3 "Net-(J2-Pad6)"))
    (pad 5 smd rect (at 0 10.16) (size 2.5 1.7) (layers F.Cu F.Paste F.Mask)
      (net 4 "Net-(J2-Pad5)"))
    (pad 4 smd rect (at 0 7.62) (size 2.5 1.7) (layers F.Cu F.Paste F.Mask)
      (net 5 "Net-(J2-Pad4)"))
    (pad 3 smd rect (at 0 5.08) (size 2.5 1.7) (layers F.Cu F.Paste F.Mask)
      (net 1 VCC))
    (pad 2 smd rect (at 0 2.54) (size 2.5 1.7) (layers F.Cu F.Paste F.Mask)
      (net 6 "Net-(J2-Pad2)"))
    (pad 1 smd rect (at 0 0) (size 2.5 1.7) (layers F.Cu F.Paste F.Mask)
      (net 2 GND))
    (model ${FAB}/fab.3dshapes/Header_SMD_01x06_P2.54mm_Horizontal_Male.step
      (at (xyz 0 0 0))
      (scale (xyz 1 1 1))
      (rotate (xyz 0 0 0))
    )
  )

  (module fab:Header_SMD_01x03_P2.54mm_Horizontal_Male (layer F.Cu) (tedit 5FFC95A6) (tstamp 602A7D34)
    (at 34.798 34.29 90)
    (descr https://s3.amazonaws.com/catalogspreads-pdf/PAGE112-113%20.100%20MALE%20HDR.pdf)
    (tags "horizontal pin header SMD 2.54mm")
    (path /602AE42A)
    (attr smd)
    (fp_text reference J1 (at -1.524 -2.54 270) (layer F.SilkS)
      (effects (font (size 1 1) (thickness 0.15)) (justify left))
    )
    (fp_text value Conn_01x03_Male (at 2.6 8.3 90) (layer F.Fab)
      (effects (font (size 1 1) (thickness 0.15)))
    )
    (fp_text user %R (at 2.4 2.6) (layer F.Fab)
      (effects (font (size 1 1) (thickness 0.15)))
    )
    (fp_line (start 6.4 -1.8) (end -1.8 -1.8) (layer F.CrtYd) (width 0.05))
    (fp_line (start 6.4 6.9) (end 6.4 -1.8) (layer F.CrtYd) (width 0.05))
    (fp_line (start -1.8 6.9) (end 6.4 6.9) (layer F.CrtYd) (width 0.05))
    (fp_line (start -1.8 -1.8) (end -1.8 6.9) (layer F.CrtYd) (width 0.05))
    (fp_line (start -1.27 -1.27) (end 0 -1.27) (layer F.SilkS) (width 0.12))
    (fp_line (start 3.81 6.35) (end 3.8 -1.27) (layer F.Fab) (width 0.1))
    (fp_line (start 3.8 -1.27) (end 6.34 -1.27) (layer F.Fab) (width 0.1))
    (fp_line (start 3.8 6.35) (end 6.35 6.35) (layer F.Fab) (width 0.1))
    (fp_line (start 6.34 -1.27) (end 6.35 6.35) (layer F.Fab) (width 0.1))
    (fp_line (start 3.81 0) (end -0.635 0) (layer F.Fab) (width 0.1))
    (fp_line (start 3.81 2.54) (end -0.635 2.54) (layer F.Fab) (width 0.1))
    (fp_line (start 3.81 5.08) (end -0.635 5.08) (layer F.Fab) (width 0.1))
    (fp_line (start 3.81 -1.27) (end 6.35 -1.27) (layer F.SilkS) (width 0.12))
    (fp_line (start 6.35 -1.27) (end 6.35 6.35) (layer F.SilkS) (width 0.12))
    (fp_line (start 6.35 6.35) (end 3.81 6.35) (layer F.SilkS) (width 0.12))
    (fp_line (start 3.81 6.35) (end 3.81 -1.27) (layer F.SilkS) (width 0.12))
    (fp_line (start 3.81 -0.254) (end 1.27 -0.254) (layer F.SilkS) (width 0.12))
    (fp_line (start 3.81 0.254) (end 1.27 0.254) (layer F.SilkS) (width 0.12))
    (fp_line (start 3.81 2.286) (end 1.27 2.286) (layer F.SilkS) (width 0.12))
    (fp_line (start 3.81 2.794) (end 1.27 2.794) (layer F.SilkS) (width 0.12))
    (fp_line (start 3.81 4.826) (end 1.27 4.826) (layer F.SilkS) (width 0.12))
    (fp_line (start 3.81 5.334) (end 1.27 5.334) (layer F.SilkS) (width 0.12))
    (fp_line (start -0.635 -0.254) (end -0.635 0.254) (layer F.Fab) (width 0.1))
    (fp_line (start -0.635 2.286) (end -0.635 2.794) (layer F.Fab) (width 0.1))
    (fp_line (start -0.635 4.826) (end -0.635 5.334) (layer F.Fab) (width 0.1))
    (pad 3 smd rect (at 0 5.08 90) (size 2.5 1.7) (layers F.Cu F.Paste F.Mask)
      (net 10 "Net-(J1-Pad3)"))
    (pad 2 smd rect (at 0 2.54 90) (size 2.5 1.7) (layers F.Cu F.Paste F.Mask)
      (net 2 GND))
    (pad 1 smd rect (at 0 0 90) (size 2.5 1.7) (layers F.Cu F.Paste F.Mask)
      (net 1 VCC))
    (model "$(FAB)/fab.3dshapes/Header_SMD_01x03_P2.54mm_Horizontal_Male.step"
      (at (xyz 0 0 0))
      (scale (xyz 1 1 1))
      (rotate (xyz 0 0 0))
    )
  )

  (module fab:C_1206 (layer F.Cu) (tedit 6002C54C) (tstamp 602A7BD2)
    (at 37.592 37.846)
    (descr "Capacitor SMD 1206, hand soldering")
    (tags "capacitor 1206")
    (path /602A8647)
    (attr smd)
    (fp_text reference C1 (at 0 -1.85) (layer F.SilkS)
      (effects (font (size 1 1) (thickness 0.15)))
    )
    (fp_text value 1u (at 0 1.9) (layer F.Fab)
      (effects (font (size 1 1) (thickness 0.15)))
    )
    (fp_text user %R (at 0 0) (layer F.Fab)
      (effects (font (size 0.7 0.7) (thickness 0.105)))
    )
    (fp_line (start -1.6 0.8) (end -1.6 -0.8) (layer F.Fab) (width 0.1))
    (fp_line (start 1.6 0.8) (end -1.6 0.8) (layer F.Fab) (width 0.1))
    (fp_line (start 1.6 -0.8) (end 1.6 0.8) (layer F.Fab) (width 0.1))
    (fp_line (start -1.6 -0.8) (end 1.6 -0.8) (layer F.Fab) (width 0.1))
    (fp_line (start 1 1.07) (end -1 1.07) (layer F.SilkS) (width 0.12))
    (fp_line (start -1 -1.07) (end 1 -1.07) (layer F.SilkS) (width 0.12))
    (fp_line (start -3.25 -1.11) (end 3.25 -1.11) (layer F.CrtYd) (width 0.05))
    (fp_line (start -3.25 -1.11) (end -3.25 1.1) (layer F.CrtYd) (width 0.05))
    (fp_line (start 3.25 1.1) (end 3.25 -1.11) (layer F.CrtYd) (width 0.05))
    (fp_line (start 3.25 1.1) (end -3.25 1.1) (layer F.CrtYd) (width 0.05))
    (pad 1 smd rect (at -2 0) (size 2 1.7) (layers F.Cu F.Paste F.Mask)
      (net 1 VCC))
    (pad 2 smd rect (at 2 0) (size 2 1.7) (layers F.Cu F.Paste F.Mask)
      (net 2 GND))
    (model ${FAB}/fab.3dshapes/C_1206.step
      (at (xyz 0 0 0))
      (scale (xyz 1 1 1))
      (rotate (xyz 0 0 0))
    )
  )

  (gr_line (start 50.038 27.94) (end 50.038 45.212) (layer Edge.Cuts) (width 0.1))
  (gr_line (start 32.766 27.94) (end 50.038 27.94) (layer Edge.Cuts) (width 0.1))
  (gr_line (start 32.766 45.212) (end 32.766 27.94) (layer Edge.Cuts) (width 0.1))
  (gr_line (start 50.038 45.212) (end 32.766 45.212) (layer Edge.Cuts) (width 0.1))

  (segment (start 43.688 35.306) (end 43.973762 35.306) (width 0.4064) (layer F.Cu) (net 1))
  (segment (start 34.792 38.646) (end 35.592 37.846) (width 0.4064) (layer F.Cu) (net 1))
  (segment (start 34.792 40.005) (end 34.792 38.646) (width 0.4064) (layer F.Cu) (net 1))
  (segment (start 35.592 35.084) (end 34.798 34.29) (width 0.4064) (layer F.Cu) (net 1))
  (segment (start 35.592 37.846) (end 35.592 35.084) (width 0.4064) (layer F.Cu) (net 1))
  (segment (start 45.72 28.448) (end 37.084 28.448) (width 0.4064) (layer F.Cu) (net 1))
  (segment (start 46.736 29.464) (end 45.72 28.448) (width 0.4064) (layer F.Cu) (net 1))
  (segment (start 37.084 28.448) (end 34.798 30.734) (width 0.4064) (layer F.Cu) (net 1))
  (segment (start 46.736 33.9144) (end 46.736 29.464) (width 0.4064) (layer F.Cu) (net 1))
  (segment (start 45.3444 35.306) (end 46.736 33.9144) (width 0.4064) (layer F.Cu) (net 1))
  (segment (start 34.798 30.734) (end 34.798 34.29) (width 0.4064) (layer F.Cu) (net 1))
  (segment (start 43.688 35.306) (end 45.3444 35.306) (width 0.4064) (layer F.Cu) (net 1))
  (segment (start 39.592 39.205) (end 40.392 40.005) (width 0.4064) (layer F.Cu) (net 2))
  (segment (start 39.592 37.846) (end 39.592 39.205) (width 0.4064) (layer F.Cu) (net 2))
  (segment (start 45.466 44.704) (end 35.681 44.704) (width 0.4064) (layer F.Cu) (net 4))
  (segment (start 46.228 43.942) (end 45.466 44.704) (width 0.4064) (layer F.Cu) (net 4))
  (segment (start 35.681 44.704) (end 34.792 43.815) (width 0.4064) (layer F.Cu) (net 4))
  (segment (start 46.228 40.894) (end 46.228 43.942) (width 0.4064) (layer F.Cu) (net 4))
  (segment (start 45.72 40.386) (end 46.228 40.894) (width 0.4064) (layer F.Cu) (net 4))
  (segment (start 43.688 40.386) (end 45.72 40.386) (width 0.4064) (layer F.Cu) (net 4))
  (segment (start 42.034799 39.213439) (end 43.402238 37.846) (width 0.4064) (layer F.Cu) (net 5))
  (segment (start 43.402238 37.846) (end 43.688 37.846) (width 0.4064) (layer F.Cu) (net 5))
  (segment (start 42.034799 42.877963) (end 42.034799 39.213439) (width 0.4064) (layer F.Cu) (net 5))
  (segment (start 41.097762 43.815) (end 42.034799 42.877963) (width 0.4064) (layer F.Cu) (net 5))
  (segment (start 40.392 43.815) (end 41.097762 43.815) (width 0.4064) (layer F.Cu) (net 5))
  (segment (start 39.0856 42.545) (end 37.846 41.3054) (width 0.4064) (layer F.Cu) (net 10))
  (segment (start 40.392 42.545) (end 39.0856 42.545) (width 0.4064) (layer F.Cu) (net 10))
  (segment (start 39.878 34.984238) (end 39.878 34.29) (width 0.4064) (layer F.Cu) (net 10))
  (segment (start 37.846 37.016238) (end 39.878 34.984238) (width 0.4064) (layer F.Cu) (net 10))
  (segment (start 37.846 41.3054) (end 37.846 37.016238) (width 0.4064) (layer F.Cu) (net 10))

  (zone (net 2) (net_name GND) (layer F.Cu) (tstamp 0) (hatch edge 0.508)
    (connect_pads (clearance 0.25))
    (min_thickness 0.254)
    (fill yes (arc_segments 32) (thermal_gap 0.508) (thermal_bridge_width 0.508))
    (polygon
      (pts
        (xy 50.060161 45.212) (xy 32.788161 45.212) (xy 32.766 27.94) (xy 50.038 27.94)
      )
    )
    (filled_polygon
      (pts
        (xy 49.611001 44.785) (xy 46.205526 44.785) (xy 46.618108 44.372418) (xy 46.640248 44.354248) (xy 46.712753 44.265901)
        (xy 46.766628 44.165107) (xy 46.799805 44.055739) (xy 46.8082 43.970501) (xy 46.8082 43.970491) (xy 46.811006 43.942)
        (xy 46.8082 43.913509) (xy 46.8082 40.92249) (xy 46.811006 40.893999) (xy 46.8082 40.865508) (xy 46.8082 40.865499)
        (xy 46.799805 40.780261) (xy 46.766628 40.670893) (xy 46.712753 40.570099) (xy 46.691029 40.543628) (xy 46.658416 40.503889)
        (xy 46.658413 40.503886) (xy 46.640248 40.481752) (xy 46.618115 40.463588) (xy 46.150417 39.995891) (xy 46.132248 39.973752)
        (xy 46.043901 39.901247) (xy 45.943107 39.847372) (xy 45.833739 39.814195) (xy 45.748501 39.8058) (xy 45.748491 39.8058)
        (xy 45.72 39.802994) (xy 45.691509 39.8058) (xy 45.316824 39.8058) (xy 45.316824 39.536) (xy 45.309545 39.462095)
        (xy 45.287988 39.39103) (xy 45.252981 39.325537) (xy 45.205869 39.268131) (xy 45.148463 39.221019) (xy 45.08297 39.186012)
        (xy 45.011905 39.164455) (xy 44.938 39.157176) (xy 42.911588 39.157176) (xy 42.99394 39.074824) (xy 44.938 39.074824)
        (xy 45.011905 39.067545) (xy 45.08297 39.045988) (xy 45.148463 39.010981) (xy 45.205869 38.963869) (xy 45.252981 38.906463)
        (xy 45.287988 38.84097) (xy 45.309545 38.769905) (xy 45.316824 38.696) (xy 45.316824 36.996) (xy 45.309545 36.922095)
        (xy 45.287988 36.85103) (xy 45.252981 36.785537) (xy 45.205869 36.728131) (xy 45.148463 36.681019) (xy 45.08297 36.646012)
        (xy 45.011905 36.624455) (xy 44.938 36.617176) (xy 42.438 36.617176) (xy 42.364095 36.624455) (xy 42.29303 36.646012)
        (xy 42.227537 36.681019) (xy 42.170131 36.728131) (xy 42.123019 36.785537) (xy 42.088012 36.85103) (xy 42.066455 36.922095)
        (xy 42.059176 36.996) (xy 42.059176 38.368536) (xy 41.644686 38.783026) (xy 41.622552 38.801191) (xy 41.604387 38.823325)
        (xy 41.604383 38.823329) (xy 41.550047 38.889538) (xy 41.496172 38.990332) (xy 41.478663 39.04805) (xy 41.416482 39.029188)
        (xy 41.292 39.016928) (xy 41.140073 39.017688) (xy 41.181502 38.94018) (xy 41.217812 38.820482) (xy 41.230072 38.696)
        (xy 41.227 38.13175) (xy 41.06825 37.973) (xy 39.719 37.973) (xy 39.719 37.993) (xy 39.465 37.993)
        (xy 39.465 37.973) (xy 39.445 37.973) (xy 39.445 37.719) (xy 39.465 37.719) (xy 39.465 36.51975)
        (xy 39.719 36.51975) (xy 39.719 37.719) (xy 41.06825 37.719) (xy 41.227 37.56025) (xy 41.230072 36.996)
        (xy 41.217812 36.871518) (xy 41.181502 36.75182) (xy 41.122537 36.641506) (xy 41.043185 36.544815) (xy 40.946494 36.465463)
        (xy 40.83618 36.406498) (xy 40.716482 36.370188) (xy 40.592 36.357928) (xy 39.87775 36.361) (xy 39.719 36.51975)
        (xy 39.465 36.51975) (xy 39.314007 36.368757) (xy 39.763941 35.918824) (xy 40.728 35.918824) (xy 40.801905 35.911545)
        (xy 40.87297 35.889988) (xy 40.938463 35.854981) (xy 40.995869 35.807869) (xy 41.042981 35.750463) (xy 41.077988 35.68497)
        (xy 41.099545 35.613905) (xy 41.106824 35.54) (xy 41.106824 33.04) (xy 41.099545 32.966095) (xy 41.077988 32.89503)
        (xy 41.042981 32.829537) (xy 40.995869 32.772131) (xy 40.938463 32.725019) (xy 40.87297 32.690012) (xy 40.801905 32.668455)
        (xy 40.728 32.661176) (xy 39.028 32.661176) (xy 38.954095 32.668455) (xy 38.88303 32.690012) (xy 38.817537 32.725019)
        (xy 38.763404 32.769445) (xy 38.718537 32.685506) (xy 38.639185 32.588815) (xy 38.542494 32.509463) (xy 38.43218 32.450498)
        (xy 38.312482 32.414188) (xy 38.188 32.401928) (xy 37.62375 32.405) (xy 37.465 32.56375) (xy 37.465 34.163)
        (xy 37.485 34.163) (xy 37.485 34.417) (xy 37.465 34.417) (xy 37.465 36.01625) (xy 37.62375 36.175)
        (xy 37.865396 36.176316) (xy 37.455887 36.585825) (xy 37.433753 36.60399) (xy 37.415588 36.626124) (xy 37.415584 36.626128)
        (xy 37.361248 36.692337) (xy 37.307373 36.793131) (xy 37.274196 36.902499) (xy 37.262994 37.016238) (xy 37.265801 37.044739)
        (xy 37.2658 39.243) (xy 35.814 39.243) (xy 35.789224 39.24544) (xy 35.765399 39.252667) (xy 35.743443 39.264403)
        (xy 35.725122 39.279438) (xy 35.692 39.276176) (xy 35.3722 39.276176) (xy 35.3722 39.074824) (xy 36.592 39.074824)
        (xy 36.665905 39.067545) (xy 36.73697 39.045988) (xy 36.802463 39.010981) (xy 36.859869 38.963869) (xy 36.906981 38.906463)
        (xy 36.941988 38.84097) (xy 36.963545 38.769905) (xy 36.970824 38.696) (xy 36.970824 36.996) (xy 36.963545 36.922095)
        (xy 36.941988 36.85103) (xy 36.906981 36.785537) (xy 36.859869 36.728131) (xy 36.802463 36.681019) (xy 36.73697 36.646012)
        (xy 36.665905 36.624455) (xy 36.592 36.617176) (xy 36.1722 36.617176) (xy 36.1722 36.09122) (xy 36.24382 36.129502)
        (xy 36.363518 36.165812) (xy 36.488 36.178072) (xy 37.05225 36.175) (xy 37.211 36.01625) (xy 37.211 34.417)
        (xy 37.191 34.417) (xy 37.191 34.163) (xy 37.211 34.163) (xy 37.211 32.56375) (xy 37.05225 32.405)
        (xy 36.488 32.401928) (xy 36.363518 32.414188) (xy 36.24382 32.450498) (xy 36.133506 32.509463) (xy 36.036815 32.588815)
        (xy 35.957463 32.685506) (xy 35.912596 32.769445) (xy 35.858463 32.725019) (xy 35.79297 32.690012) (xy 35.721905 32.668455)
        (xy 35.648 32.661176) (xy 35.3782 32.661176) (xy 35.3782 31.076) (xy 41.799928 31.076) (xy 41.812188 31.200482)
        (xy 41.848498 31.32018) (xy 41.907463 31.430494) (xy 41.986815 31.527185) (xy 42.083506 31.606537) (xy 42.167445 31.651404)
        (xy 42.123019 31.705537) (xy 42.088012 31.77103) (xy 42.066455 31.842095) (xy 42.059176 31.916) (xy 42.059176 33.616)
        (xy 42.066455 33.689905) (xy 42.088012 33.76097) (xy 42.123019 33.826463) (xy 42.170131 33.883869) (xy 42.227537 33.930981)
        (xy 42.29303 33.965988) (xy 42.364095 33.987545) (xy 42.438 33.994824) (xy 44.938 33.994824) (xy 45.011905 33.987545)
        (xy 45.08297 33.965988) (xy 45.148463 33.930981) (xy 45.205869 33.883869) (xy 45.252981 33.826463) (xy 45.287988 33.76097)
        (xy 45.309545 33.689905) (xy 45.316824 33.616) (xy 45.316824 31.916) (xy 45.309545 31.842095) (xy 45.287988 31.77103)
        (xy 45.252981 31.705537) (xy 45.208555 31.651404) (xy 45.292494 31.606537) (xy 45.389185 31.527185) (xy 45.468537 31.430494)
        (xy 45.527502 31.32018) (xy 45.563812 31.200482) (xy 45.576072 31.076) (xy 45.573 30.51175) (xy 45.41425 30.353)
        (xy 43.815 30.353) (xy 43.815 30.373) (xy 43.561 30.373) (xy 43.561 30.353) (xy 41.96175 30.353)
        (xy 41.803 30.51175) (xy 41.799928 31.076) (xy 35.3782 31.076) (xy 35.3782 30.974326) (xy 37.324327 29.0282)
        (xy 41.903885 29.0282) (xy 41.848498 29.13182) (xy 41.812188 29.251518) (xy 41.799928 29.376) (xy 41.803 29.94025)
        (xy 41.96175 30.099) (xy 43.561 30.099) (xy 43.561 30.079) (xy 43.815 30.079) (xy 43.815 30.099)
        (xy 45.41425 30.099) (xy 45.573 29.94025) (xy 45.576072 29.376) (xy 45.563812 29.251518) (xy 45.527502 29.13182)
        (xy 45.472115 29.0282) (xy 45.479674 29.0282) (xy 46.155801 29.704328) (xy 46.1558 33.674074) (xy 45.316824 34.51305)
        (xy 45.316824 34.456) (xy 45.309545 34.382095) (xy 45.287988 34.31103) (xy 45.252981 34.245537) (xy 45.205869 34.188131)
        (xy 45.148463 34.141019) (xy 45.08297 34.106012) (xy 45.011905 34.084455) (xy 44.938 34.077176) (xy 42.438 34.077176)
        (xy 42.364095 34.084455) (xy 42.29303 34.106012) (xy 42.227537 34.141019) (xy 42.170131 34.188131) (xy 42.123019 34.245537)
        (xy 42.088012 34.31103) (xy 42.066455 34.382095) (xy 42.059176 34.456) (xy 42.059176 36.156) (xy 42.066455 36.229905)
        (xy 42.088012 36.30097) (xy 42.123019 36.366463) (xy 42.170131 36.423869) (xy 42.227537 36.470981) (xy 42.29303 36.505988)
        (xy 42.364095 36.527545) (xy 42.438 36.534824) (xy 44.938 36.534824) (xy 45.011905 36.527545) (xy 45.08297 36.505988)
        (xy 45.148463 36.470981) (xy 45.205869 36.423869) (xy 45.252981 36.366463) (xy 45.287988 36.30097) (xy 45.309545 36.229905)
        (xy 45.316824 36.156) (xy 45.316824 35.88629) (xy 45.3444 35.889006) (xy 45.372891 35.8862) (xy 45.372901 35.8862)
        (xy 45.458139 35.877805) (xy 45.567507 35.844628) (xy 45.668301 35.790753) (xy 45.756648 35.718248) (xy 45.774818 35.696108)
        (xy 47.126109 34.344817) (xy 47.148248 34.326648) (xy 47.214815 34.245537) (xy 47.220753 34.238302) (xy 47.274628 34.137507)
        (xy 47.307805 34.02814) (xy 47.319007 33.9144) (xy 47.3162 33.885899) (xy 47.3162 29.492491) (xy 47.319006 29.464)
        (xy 47.3162 29.435509) (xy 47.3162 29.435499) (xy 47.307805 29.350261) (xy 47.274628 29.240893) (xy 47.220753 29.140099)
        (xy 47.20663 29.12289) (xy 47.166416 29.073889) (xy 47.166413 29.073886) (xy 47.148248 29.051752) (xy 47.126114 29.033587)
        (xy 46.459526 28.367) (xy 49.611 28.367)
      )
    )
    (filled_polygon
      (pts
        (xy 40.519 39.878) (xy 40.539 39.878) (xy 40.539 40.132) (xy 40.519 40.132) (xy 40.519 40.152)
        (xy 40.265 40.152) (xy 40.265 40.132) (xy 40.245 40.132) (xy 40.245 39.878) (xy 40.265 39.878)
        (xy 40.265 39.858) (xy 40.519 39.858)
      )
    )
  )
  (zone (net 0) (net_name "") (layer F.Cu) (tstamp 0) (hatch edge 0.508)
    (connect_pads (clearance 0.25))
    (min_thickness 0.254)
    (keepout (tracks allowed) (vias allowed) (copperpour not_allowed))
    (fill (arc_segments 32) (thermal_gap 0.508) (thermal_bridge_width 0.508))
    (polygon
      (pts
        (xy 39.37 44.45) (xy 35.814 44.45) (xy 35.814 39.37) (xy 39.37 39.37)
      )
    )
  )
  (zone (net 0) (net_name "") (layer Eco1.User) (tstamp 0) (hatch edge 0.508)
    (connect_pads (clearance 0.25))
    (min_thickness 0.005)
    (fill yes (arc_segments 32) (thermal_gap 0.508) (thermal_bridge_width 0.508))
    (polygon
      (pts
        (xy 51.435 46.355) (xy 31.75 46.355) (xy 31.75 26.67) (xy 51.435 26.67)
      )
    )
    (filled_polygon
      (pts
        (xy 50.038 45.212) (xy 32.766 45.212) (xy 32.766 27.94) (xy 50.038 27.94)
      )
    )
  )
)
