EESchema Schematic File Version 4
EELAYER 30 0
EELAYER END
$Descr A4 11693 8268
encoding utf-8
Sheet 1 1
Title ""
Date ""
Rev ""
Comp ""
Comment1 ""
Comment2 ""
Comment3 ""
Comment4 ""
$EndDescr
$Comp
L fab:Microcontroller_ATtiny412_SSFR U1
U 1 1 602A73D2
P 5100 2750
F 0 "U1" H 4570 2796 50  0000 R CNN
F 1 "Microcontroller_ATtiny412_SSFR" H 4570 2705 50  0000 R CNN
F 2 "fab:SOIC-8_3.9x4.9mm_P1.27mm" H 5100 2750 50  0001 C CIN
F 3 "http://ww1.microchip.com/downloads/en/DeviceDoc/40001911A.pdf" H 5100 2750 50  0001 C CNN
	1    5100 2750
	1    0    0    -1  
$EndComp
$Comp
L fab:C C1
U 1 1 602A8647
P 4850 1950
F 0 "C1" V 4598 1950 50  0000 C CNN
F 1 "1u" V 4689 1950 50  0000 C CNN
F 2 "fab:C_1206" H 4888 1800 50  0001 C CNN
F 3 "" H 4850 1950 50  0001 C CNN
	1    4850 1950
	0    1    1    0   
$EndComp
$Comp
L power:GND #PWR0101
U 1 1 602A9E8C
P 5100 3550
F 0 "#PWR0101" H 5100 3300 50  0001 C CNN
F 1 "GND" H 5105 3377 50  0000 C CNN
F 2 "" H 5100 3550 50  0001 C CNN
F 3 "" H 5100 3550 50  0001 C CNN
	1    5100 3550
	1    0    0    -1  
$EndComp
$Comp
L power:VCC #PWR0102
U 1 1 602AA631
P 5100 1850
F 0 "#PWR0102" H 5100 1700 50  0001 C CNN
F 1 "VCC" H 5115 2023 50  0000 C CNN
F 2 "" H 5100 1850 50  0001 C CNN
F 3 "" H 5100 1850 50  0001 C CNN
	1    5100 1850
	1    0    0    -1  
$EndComp
$Comp
L power:GND #PWR0103
U 1 1 602AADA1
P 4600 1950
F 0 "#PWR0103" H 4600 1700 50  0001 C CNN
F 1 "GND" V 4605 1822 50  0000 R CNN
F 2 "" H 4600 1950 50  0001 C CNN
F 3 "" H 4600 1950 50  0001 C CNN
	1    4600 1950
	0    1    1    0   
$EndComp
Wire Wire Line
	4600 1950 4700 1950
Wire Wire Line
	5100 2050 5100 1950
Wire Wire Line
	5100 1950 5000 1950
Wire Wire Line
	5100 1850 5100 1950
Connection ~ 5100 1950
Wire Wire Line
	5100 3450 5100 3550
$Comp
L fab:Conn_FTDI_01x06_Male J2
U 1 1 602ABC9B
P 6500 3250
F 0 "J2" H 6331 3169 50  0000 R CNN
F 1 "Conn_FTDI_01x06_Male" H 6331 3260 50  0000 R CNN
F 2 "fab:Header_SMD_FTDI_01x06_P2.54mm_Horizontal_Male" H 6500 3250 50  0001 C CNN
F 3 "~" H 6500 3250 50  0001 C CNN
	1    6500 3250
	-1   0    0    1   
$EndComp
$Comp
L fab:Conn_01x03_Male J1
U 1 1 602AE42A
P 6500 2550
F 0 "J1" H 6472 2482 50  0000 R CNN
F 1 "Conn_01x03_Male" H 6472 2573 50  0000 R CNN
F 2 "fab:Header_SMD_01x03_P2.54mm_Horizontal_Male" H 6500 2550 50  0001 C CNN
F 3 "~" H 6500 2550 50  0001 C CNN
	1    6500 2550
	-1   0    0    1   
$EndComp
Wire Wire Line
	5700 2550 6000 2550
Wire Wire Line
	6000 2550 6000 3050
Wire Wire Line
	6000 3050 6300 3050
Wire Wire Line
	6300 3150 5900 3150
Wire Wire Line
	5900 3150 5900 2650
Wire Wire Line
	5900 2650 5700 2650
$Comp
L power:VCC #PWR0104
U 1 1 602AFA44
P 6100 2150
F 0 "#PWR0104" H 6100 2000 50  0001 C CNN
F 1 "VCC" H 6115 2323 50  0000 C CNN
F 2 "" H 6100 2150 50  0001 C CNN
F 3 "" H 6100 2150 50  0001 C CNN
	1    6100 2150
	1    0    0    -1  
$EndComp
$Comp
L power:GND #PWR0105
U 1 1 602B00D5
P 6200 3550
F 0 "#PWR0105" H 6200 3300 50  0001 C CNN
F 1 "GND" H 6205 3377 50  0000 C CNN
F 2 "" H 6200 3550 50  0001 C CNN
F 3 "" H 6200 3550 50  0001 C CNN
	1    6200 3550
	1    0    0    -1  
$EndComp
Wire Wire Line
	6300 3450 6200 3450
Wire Wire Line
	6200 3450 6200 3550
Wire Wire Line
	6200 3450 6200 2550
Connection ~ 6200 3450
Wire Wire Line
	6100 3250 6300 3250
NoConn ~ 5700 2750
NoConn ~ 5700 2950
NoConn ~ 5700 3050
NoConn ~ 6300 3350
NoConn ~ 6300 2950
$Comp
L power:PWR_FLAG #FLG0101
U 1 1 602B464C
P 6050 3650
F 0 "#FLG0101" H 6050 3725 50  0001 C CNN
F 1 "PWR_FLAG" H 6050 3823 50  0000 C CNN
F 2 "" H 6050 3650 50  0001 C CNN
F 3 "~" H 6050 3650 50  0001 C CNN
	1    6050 3650
	-1   0    0    1   
$EndComp
$Comp
L power:PWR_FLAG #FLG0102
U 1 1 602B4E2F
P 6250 2050
F 0 "#FLG0102" H 6250 2125 50  0001 C CNN
F 1 "PWR_FLAG" H 6250 2223 50  0000 C CNN
F 2 "" H 6250 2050 50  0001 C CNN
F 3 "~" H 6250 2050 50  0001 C CNN
	1    6250 2050
	1    0    0    -1  
$EndComp
Wire Wire Line
	6050 3650 6050 3450
Wire Wire Line
	6050 3450 6200 3450
Wire Wire Line
	6100 2150 6100 2200
Wire Wire Line
	6300 2450 5700 2450
Wire Wire Line
	6300 2550 6200 2550
Wire Wire Line
	6300 2650 6100 2650
Connection ~ 6100 2650
Wire Wire Line
	6100 2650 6100 3250
Wire Wire Line
	6250 2050 6250 2200
Wire Wire Line
	6250 2200 6100 2200
Connection ~ 6100 2200
Wire Wire Line
	6100 2200 6100 2650
$EndSCHEMATC
