<?xml version="1.0" encoding="UTF-8" standalone="no"?>
<svg
   xmlns:dc="http://purl.org/dc/elements/1.1/"
   xmlns:cc="http://creativecommons.org/ns#"
   xmlns:rdf="http://www.w3.org/1999/02/22-rdf-syntax-ns#"
   xmlns:svg="http://www.w3.org/2000/svg"
   xmlns="http://www.w3.org/2000/svg"
   xmlns:sodipodi="http://sodipodi.sourceforge.net/DTD/sodipodi-0.dtd"
   xmlns:inkscape="http://www.inkscape.org/namespaces/inkscape"
   id="svg2971"
   enable-background="new 0 0 585.793 569.617"
   xml:space="preserve"
   viewBox="0 0 187.41898 195.70919"
   height="195.71022"
   width="187.41801"
   version="1.1"
   y="0px"
   x="0px"
   inkscape:version="1.0.2 (e86c870879, 2021-01-15, custom)"
   sodipodi:docname="tarra.svg"
   inkscape:export-filename="C:\Dropbox\toridas\adidas.png"
   inkscape:export-xdpi="90"
   inkscape:export-ydpi="90"><metadata
     id="metadata17"><rdf:RDF><cc:Work
         rdf:about=""><dc:format>image/svg+xml</dc:format><dc:type
           rdf:resource="http://purl.org/dc/dcmitype/StillImage" /><dc:title></dc:title></cc:Work></rdf:RDF></metadata><defs
     id="defs15" /><sodipodi:namedview
     pagecolor="#ffffff"
     bordercolor="#666666"
     borderopacity="1"
     objecttolerance="10"
     gridtolerance="10"
     guidetolerance="10"
     inkscape:pageopacity="0"
     inkscape:pageshadow="2"
     inkscape:window-width="2560"
     inkscape:window-height="1377"
     id="namedview13"
     showgrid="false"
     inkscape:zoom="2.828427"
     inkscape:cx="47.60125"
     inkscape:cy="117.98371"
     inkscape:window-x="-8"
     inkscape:window-y="472"
     inkscape:window-maximized="1"
     inkscape:current-layer="g3003"
     inkscape:document-rotation="0"
     fit-margin-top="0"
     fit-margin-left="0"
     fit-margin-right="0"
     fit-margin-bottom="0" /><g
     id="layer1"
     transform="translate(-255.16144,-365.39138)"><g
       id="g3003"><path
   inkscape:connector-curvature="0"
   style="fill:none;stroke:#ff0000;stroke-width:0.93000442;stroke-miterlimit:4;stroke-dasharray:none;stroke-opacity:1"
   id="path4171"
   d="m 428.05207,450.67167 c -1.12117,2.24194 -3.13014,5.37245 -4.98621,7.22815 H 274.32779 c -1.08235,-1.46863 -3.67216,-4.83171 -4.79292,-7.22815 h 158.51679" /><path
   inkscape:connector-curvature="0"
   style="fill:none;stroke:#ff0000;stroke-width:0.93000442;stroke-miterlimit:4;stroke-dasharray:none;stroke-opacity:1"
   id="path4169"
   d="m 416.95605,465.47782 c -1.85525,2.58935 -4.63797,5.02463 -7.6144,6.68658 H 287.50603 c -2.43489,-1.66154 -4.83175,-4.09723 -7.07365,-6.68658 h 136.52169" /><path
   inkscape:connector-curvature="0"
   style="fill:none;stroke:#ff0000;stroke-width:0.93000442;stroke-miterlimit:4;stroke-dasharray:none;stroke-opacity:1"
   id="path4167"
   d="m 400.10248,479.19524 c -13.18063,9.81751 -27.59811,14.80376 -38.53643,15.53787 0,-4.0584 0,-9.62422 1.12077,-15.53787 h 37.41768" /><path
   inkscape:connector-curvature="0"
   style="fill:none;stroke:#ff0000;stroke-width:0.93000442;stroke-miterlimit:4;stroke-dasharray:none;stroke-opacity:1"
   id="path4165"
   d="m 441.92519,402.15834 c 1.12076,12.02108 -2.7831,26.67034 -10.16575,41.47649 H 376.9498 c 2.00979,-3.51721 4.63838,-6.8415 7.57561,-10.20462 15.92691,-18.67282 40.39171,-30.1887 57.39941,-31.27347" /><path
   inkscape:connector-curvature="0"
   style="fill:none;stroke:#ff0000;stroke-width:0.93000442;stroke-miterlimit:4;stroke-dasharray:none;stroke-opacity:1"
   id="path4163"
   d="m 335.63184,494.73229 c -10.55244,-0.73411 -25.00875,-5.72032 -38.30509,-15.53787 h 37.76431 c 0.73251,5.91208 0.73251,11.47988 0.54037,15.53869" /><path
   inkscape:connector-curvature="0"
   style="fill:none;stroke:#ff0000;stroke-width:0.93000442;stroke-miterlimit:4;stroke-dasharray:none;stroke-opacity:1"
   id="path4161"
   d="m 348.77245,495.85388 c -4.25169,-4.05881 -7.96263,-9.62464 -11.82771,-16.65905 h 23.50092 c -3.71053,7.03281 -7.76931,12.60065 -11.67198,16.65942" /><path
   inkscape:connector-curvature="0"
   style="fill:none;stroke:#ff0000;stroke-width:0.93000442;stroke-miterlimit:4;stroke-dasharray:none;stroke-opacity:1"
   id="path4159"
   d="m 320.82648,443.63442 h -55.00174 c -7.42152,-14.80376 -11.09363,-29.4534 -10.01166,-41.47645 16.85316,1.08235 41.51248,12.60065 57.43939,31.26985 2.74189,3.36629 5.52379,6.68861 7.57322,10.20701" /><path
   inkscape:connector-curvature="0"
   id="path4931-0"
   d="m 349.14945,365.85375 c -1.69672,0.0112 -5.61282,0.36219 -7.16825,0.67078 -6.33078,1.25542 -9.58323,4.06947 -8.00788,6.92904 0.40497,0.73508 1.63364,1.77815 2.7957,2.3735 l 0.7544,0.38699 0.0261,2.19759 c 0.0149,1.20891 0.0519,2.29059 0.0828,2.40402 0.0298,0.11339 -0.12309,0.3398 -0.34242,0.50348 -0.3275,0.24432 -0.3915,0.53399 -0.35883,1.62223 0.0679,2.26574 0.57786,3.86462 1.43614,4.5031 0.24096,0.17941 0.72143,1.33804 1.44006,3.4727 0.13205,0.39211 -0.48192,0.60438 -2.0983,0.72706 -0.56435,0.0429 -1.24076,0.21896 -1.50339,0.39091 -0.2626,0.17196 -1.7792,0.79547 -3.37032,1.38534 -1.59109,0.58983 -3.08725,1.2511 -3.32492,1.46975 -0.23761,0.21858 -0.53448,0.39796 -0.65907,0.39796 -0.54555,0 -1.68982,1.78542 -3.40549,5.31304 -3.40583,7.00274 -5.64337,13.3979 -7.0064,20.02712 -0.24096,1.1715 -0.95377,5.95644 -0.95377,6.40132 0,0.23536 0.79494,0.73735 1.44472,0.91233 0.79211,0.21336 0.79972,0.2253 0.9327,1.49713 0.28795,2.75475 2.82051,7.68169 3.98088,7.74443 2.16653,0.11712 2.77754,-0.50333 2.60022,-2.64166 -0.0526,-0.63272 -0.0224,-1.15083 0.0705,-1.15083 0.0914,0 0.35323,-0.2003 0.58088,-0.44481 0.38374,-0.4119 0.54548,-0.43302 2.20542,-0.29467 0.98533,0.0821 1.84175,0.23015 1.90288,0.32899 0.19956,0.32265 0.94206,4.01308 1.36266,6.76873 0.18912,1.23878 0.29953,2.47134 0.35809,3.89099 h 31.39593 c 0.22641,-3.95873 0.7839,-7.6545 1.55263,-10.17269 l 0.2003,-0.65589 1.96387,-0.14771 c 1.83096,-0.13726 2.00792,-0.11488 2.60025,0.32302 0.608,0.44955 0.63344,0.5312 0.59259,1.88177 -0.0336,1.10962 0.0384,1.50049 0.33608,1.8294 0.42157,0.46585 1.67818,0.69931 2.37902,0.44172 1.19253,-0.43836 3.36774,-4.71441 3.81669,-7.50205 0.25476,-1.58292 0.27416,-1.61254 1.14688,-1.77625 1.08537,-0.20366 1.2546,-0.53993 1.08902,-2.1679 -0.86526,-8.50823 -4.80191,-20.10442 -9.88808,-29.12795 -0.22045,-0.39106 -0.7121,-0.87738 -1.09216,-1.08123 -0.38005,-0.20366 -0.80091,-0.50945 -0.93579,-0.67857 -0.13503,-0.16897 -1.47001,-0.75153 -2.96692,-1.29466 -1.4969,-0.54313 -3.04707,-1.17418 -3.44454,-1.40254 -0.39751,-0.22827 -1.15091,-0.4445 -1.67461,-0.48001 -1.04079,-0.0705 -2.31333,-0.32116 -2.31333,-0.45578 0,-0.0466 0.23611,-0.64433 0.52381,-1.32827 0.28796,-0.68394 0.52302,-1.37299 0.52302,-1.53152 0,-0.15852 0.32228,-0.61922 0.71535,-1.02415 0.83277,-0.85747 1.12808,-1.75398 1.30716,-3.96366 0.11861,-1.46218 0.0914,-1.63201 -0.31817,-1.98263 -0.37387,-0.32004 -0.44798,-0.61251 -0.44798,-1.76763 0,-0.76127 0.0657,-1.45024 0.14622,-1.53074 0.0806,-0.0806 0.1216,-0.54701 0.0914,-1.03665 -0.0515,-0.83837 -0.0112,-0.91136 0.7083,-1.254 2.55948,-1.22055 3.68189,-3.30535 2.74956,-5.10822 -1.15142,-2.22665 -6.01477,-4.18545 -11.33754,-4.56644 -1.03632,-0.0742 -2.21363,-0.16748 -2.61662,-0.20701 -0.13839,-0.0149 -0.33534,-0.0186 -0.57775,-0.0186 z"
   style="fill:none;fill-opacity:1;stroke:#ff0000;stroke-width:0.93000442;stroke-miterlimit:4;stroke-dasharray:none;stroke-opacity:1" /><text
   id="text4157"
   y="559.698"
   x="280.09064"
   style="font-style:normal;font-weight:normal;font-size:4.80329px;line-height:0%;font-family:sans-serif;letter-spacing:-0.0160111px;word-spacing:0px;fill:none;fill-opacity:1;stroke:#ff0000;stroke-width:0.930004;stroke-linecap:butt;stroke-linejoin:miter;stroke-miterlimit:4;stroke-dasharray:none;stroke-opacity:1"
   xml:space="preserve"><tspan
     style="font-style:normal;font-variant:normal;font-weight:bold;font-stretch:normal;font-size:72.0499px;font-family:'TeX Gyre Adventor';-inkscape-font-specification:'TeX Gyre Adventor Bold';letter-spacing:-3.65053px;fill:none;stroke:#ff0000;stroke-width:0.930004;stroke-miterlimit:4;stroke-dasharray:none;stroke-opacity:1"
     y="559.698"
     x="280.09064"
     id="tspan4159"
     sodipodi:role="line">oulu</tspan></text>


</g></g></svg>
